<?xml version="1.0" encoding="UTF-8" ?>
<!DOCTYPE svg PUBLIC "-//W3C//DTD SVG 1.1//EN" "http://www.w3.org/Graphics/SVG/1.1/DTD/svg11.dtd">
<svg width="750pt" height="750pt" viewBox="0 0 750 750" version="1.1" xmlns="http://www.w3.org/2000/svg">
<g id="#3e3e3eff">
<path fill="#3e3e3e" opacity="1.00" d=" M 530.98 27.94 C 563.38 3.66 606.82 -4.88 646.01 5.21 C 677.84 13.11 706.48 32.99 725.09 59.99 C 744.03 87.13 752.56 121.29 748.56 154.14 C 745.54 180.09 734.86 205.07 718.21 225.20 C 713.32 231.27 707.61 236.60 702.15 242.14 C 677.64 266.62 653.17 291.13 628.67 315.60 C 618.64 326.18 607.20 335.47 594.42 342.53 C 560.61 361.62 518.55 365.18 482.00 352.07 C 473.47 349.09 465.30 345.16 457.50 340.61 C 418.52 379.58 379.55 418.54 340.59 457.53 C 359.09 488.81 364.42 527.55 354.80 562.63 C 348.44 586.47 335.43 608.46 317.69 625.60 C 289.32 653.93 261.01 682.32 232.62 710.62 C 203.36 739.15 160.84 753.18 120.33 747.80 C 85.86 743.53 53.32 725.51 31.48 698.49 C 11.67 674.34 0.57 643.23 0.65 611.99 C 0.53 580.50 11.77 549.14 31.83 524.88 C 36.58 518.96 42.11 513.75 47.44 508.38 C 73.43 482.39 99.41 456.41 125.40 430.42 C 146.34 409.23 174.42 395.27 203.93 391.32 C 234.57 387.10 266.56 393.57 293.04 409.59 C 331.97 370.67 370.91 331.76 409.81 292.81 C 394.91 267.76 388.30 237.89 391.37 208.90 C 394.43 178.25 408.25 148.80 429.92 126.90 C 454.75 102.07 479.58 77.25 504.41 52.41 C 512.97 43.95 521.15 34.99 530.98 27.94 M 571.95 87.90 C 567.88 91.15 564.37 95.02 560.66 98.66 C 535.15 124.16 509.66 149.68 484.14 175.17 C 479.53 179.61 475.35 184.52 472.12 190.06 C 463.64 204.25 461.11 221.70 464.82 237.77 C 468.87 233.74 473.22 229.79 478.69 227.83 C 490.31 223.13 504.47 225.69 513.61 234.30 C 524.13 243.61 527.49 259.82 521.63 272.58 C 519.66 277.61 515.54 281.28 512.93 285.92 C 517.59 286.56 522.24 287.45 526.97 287.40 C 543.71 287.67 560.37 280.97 572.42 269.37 C 601.07 240.71 629.73 212.06 658.38 183.40 C 670.19 171.48 677.17 154.80 676.93 137.98 C 677.15 119.78 668.93 101.76 655.26 89.78 C 644.00 79.69 629.06 73.87 613.97 73.56 C 598.85 73.16 583.67 78.36 571.95 87.90 M 177.69 480.65 C 148.99 509.30 120.33 537.99 91.66 566.67 C 79.87 578.57 73.01 595.24 73.18 612.00 C 73.10 626.15 77.98 640.25 86.67 651.41 C 96.84 664.66 112.39 673.64 128.95 675.81 C 146.05 678.26 164.01 673.30 177.54 662.59 C 182.24 658.97 186.17 654.50 190.40 650.38 C 216.24 624.56 242.06 598.72 267.90 572.89 C 283.61 557.59 290.33 534.05 285.45 512.70 C 277.58 521.38 265.64 526.67 253.86 524.60 C 238.46 522.52 225.91 508.48 225.53 492.95 C 224.81 482.03 230.44 471.81 238.17 464.48 C 216.99 458.95 193.31 465.36 177.69 480.65 Z" />
</g>
</svg>
