<svg xmlns="http://www.w3.org/2000/svg" height="24" width="24">
    <linearGradient id="a" gradientTransform="matrix(-.10787 .8785 .87408 .10732 -1.812 758.658)"
                    gradientUnits="userSpaceOnUse" x1="304.76" x2="335.3" y1="64.295" y2="81.926">
        <stop offset="0" stop-color="#d3d7cf"/>
        <stop offset=".183" stop-color="#babdb6"/>
        <stop offset=".319" stop-color="#fff"/>
        <stop offset=".876" stop-color="#babdb6"/>
        <stop offset="1" stop-color="#eeeeec"/>
    </linearGradient>
    <linearGradient id="b" gradientTransform="matrix(-.34112 .2669 .3471 .44633 7.386 1027.643)"
                    gradientUnits="userSpaceOnUse" x1="-6.308" x2="-9.775" y1="44.229" y2="44.14">
        <stop offset="0"/>
        <stop offset="1" stop-opacity="0"/>
    </linearGradient>
    <linearGradient id="c" gradientTransform="matrix(-.67482 .52737 .29432 .37836 77.718 981.122)"
                    gradientUnits="userSpaceOnUse" x1="97.442" x2="90.221" y1="35.152" y2="35.079">
        <stop offset="0" stop-color="#f8e27e"/>
        <stop offset="1" stop-color="#e3d189"/>
    </linearGradient>
    <path d="M10.457 1032.31c-.055-.857.634-.25.876 0 1.025.742 2.03 1.515 3.067 2.24.725.255 1.422-.313 1.905-.793.69-.772 1.365-1.77 1.24-2.855-.1-.55-.68-.756-1.06-1.087-.95-.7-1.906-1.394-2.85-2.1.05-.536.92-.43 1.352-.453 1.8.032 3.76.62 4.848 2.148.894 1.243 1.096 2.91.645 4.36.25 1.355.75 2.683 1.605 3.775l-3.165 2.326c-.744-.97-1.666-1.812-2.743-2.397-1.597.233-3.23-.52-4.194-1.792-.762-.974-1.327-2.143-1.526-3.366z"
          fill-rule="evenodd" stroke="#404040" stroke-width="1.027" stroke-linecap="round" stroke-linejoin="round"
          stroke-dashoffset=".361" fill="url(#a)" transform="rotate(-10 -5656.895 557.073) scale(.96642)"/>
    <path d="M20.57 1038.954c-.378.295-.45.832-.16 1.204l5.275 7.727c.29.37 1.28.076 1.66-.22.377-.296.905-1.19.616-1.56l-6.18-7.015c-.29-.37-.826-.432-1.204-.136z"
          fill="url(#b)" opacity=".231" transform="rotate(-10 -5656.895 557.073) scale(.96642)"/>
    <path d="M.827 6.872c.006.016.026.005.026-.004L4.38 8.61c.475.235 1.01.02 1.448-.317.442-.34.86-.852 1.172-1.507.313-.656.444-1.334.434-1.897-.01-.56-.197-1.078-.655-1.305l-3.554-1.74c-.002-.012 0-.03-.002-.028-.017.02.015.008.027-.004 1.502-.434 3.268-.343 4.46.248C9.344 2.87 10.2 4.69 9.97 6.547c-.23 1.85-1.736 3.5-3.227 3.97-.966.3-2.023.25-2.968-.22-1.19-.588-2.354-1.96-2.95-3.43z"
          fill="#f0f3f2" fill-rule="evenodd"/>
    <path d="M21.97 1036.91l9.58 11.1c.572.735-.03 2.14-1.34 3.162-1.308 1.022-2.814 1.266-3.385.533l-8.4-12.025 3.547-2.77zm6.345 11.82c-.65.51-.786 1.433-.46 1.85.323.417 1.28.485 1.932-.023.65-.51.754-1.407.43-1.824-.325-.417-1.25-.51-1.902 0z"
          stroke="#404040" stroke-width=".867" stroke-linecap="round" stroke-linejoin="round" stroke-dashoffset=".7"
          fill="url(#c)" transform="rotate(-10 -5656.895 557.073) scale(.96642)"/>
    <path d="M-679.108 874.67h3.57v.578h-3.57z" fill="#fff" fill-opacity=".578" stroke="#404040" stroke-width="1.289"
          transform="matrix(.68982 -.67685 .75588 .60218 -182.664 -973.85)"/>
</svg>