<?xml version="1.0" encoding="UTF-8" standalone="no"?>
<!-- Created with Inkscape (http://www.inkscape.org/) -->

<svg
        xmlns:dc="http://purl.org/dc/elements/1.1/"
        xmlns:cc="http://creativecommons.org/ns#"
        xmlns:rdf="http://www.w3.org/1999/02/22-rdf-syntax-ns#"
        xmlns:xlink="http://www.w3.org/1999/xlink"
        xmlns:sodipodi="http://sodipodi.sourceforge.net/DTD/sodipodi-0.dtd"
        xmlns:inkscape="http://www.inkscape.org/namespaces/inkscape"
        xmlns="http://www.w3.org/2000/svg"
        version="1.1"
        width="24"
        height="24"
        viewBox="0 0 24 24"
        id="svg5692"
        style="display:inline"
        inkscape:version="0.91 r13725"
        sodipodi:docname="mActionSaveAsMission.svg">
    <sodipodi:namedview
            pagecolor="#ffffff"
            bordercolor="#666666"
            borderopacity="1"
            objecttolerance="10"
            gridtolerance="10"
            guidetolerance="10"
            inkscape:pageopacity="0"
            inkscape:pageshadow="2"
            inkscape:window-width="928"
            inkscape:window-height="1028"
            id="namedview145"
            showgrid="false"
            inkscape:zoom="19.666667"
            inkscape:cx="17.141643"
            inkscape:cy="8.801207"
            inkscape:window-x="992"
            inkscape:window-y="24"
            inkscape:window-maximized="0"
            inkscape:current-layer="svg5692"/>
    <title
            id="title3062">ring fill
    </title>
    <defs
            id="defs5694">
        <linearGradient
                id="linearGradient3657">
            <stop
                    id="stop3659"
                    style="stop-color:#fce94f;stop-opacity:1"
                    offset="0"/>
            <stop
                    id="stop3661"
                    style="stop-color:#e7ce04;stop-opacity:1"
                    offset="1"/>
        </linearGradient>
        <linearGradient
                id="linearGradient2877">
            <stop
                    id="stop2879"
                    style="stop-color:#edd400;stop-opacity:1"
                    offset="0"/>
            <stop
                    id="stop2881"
                    style="stop-color:#c2ad00;stop-opacity:1"
                    offset="1"/>
        </linearGradient>
        <linearGradient
                id="linearGradient4042">
            <stop
                    id="stop4044"
                    style="stop-color:#f2d6a9;stop-opacity:1"
                    offset="0"/>
            <stop
                    id="stop4046"
                    style="stop-color:#e9b96e;stop-opacity:1"
                    offset="1"/>
        </linearGradient>
        <linearGradient
                id="linearGradient2843">
            <stop
                    id="stop2845"
                    style="stop-color:#eeeeec;stop-opacity:1"
                    offset="0"/>
            <stop
                    id="stop2847"
                    style="stop-color:#c8c8c2;stop-opacity:1"
                    offset="1"/>
        </linearGradient>
        <linearGradient
                id="linearGradient2835">
            <stop
                    id="stop2837"
                    style="stop-color:#ccf2a6;stop-opacity:1"
                    offset="0"/>
            <stop
                    id="stop2839"
                    style="stop-color:#8ae234;stop-opacity:1"
                    offset="1"/>
        </linearGradient>
        <radialGradient
                cx="0.5"
                cy="17.838446"
                r="6.1587391"
                fx="0.5"
                fy="17.838446"
                id="radialGradient4048"
                xlink:href="#linearGradient4042"
                gradientUnits="userSpaceOnUse"
                gradientTransform="matrix(0.8118545,0.97422537,-1.1052481,0.9210397,19.809981,-0.4170292)"/>
        <radialGradient
                cx="8.5770311"
                cy="3.8663561"
                r="6.1587391"
                fx="8.5770311"
                fy="3.8663561"
                id="radialGradient4048-2"
                xlink:href="#linearGradient4042-2"
                gradientUnits="userSpaceOnUse"
                gradientTransform="matrix(0.81185454,1.1365964,-1.1707271,0.83623306,20.063146,-1.4817979)"/>
        <linearGradient
                id="linearGradient4042-2">
            <stop
                    id="stop4044-8"
                    style="stop-color:#f2d6a9;stop-opacity:1"
                    offset="0"/>
            <stop
                    id="stop4046-4"
                    style="stop-color:#e9b96e;stop-opacity:1"
                    offset="1"/>
        </linearGradient>
        <radialGradient
                cx="0.5"
                cy="17.838446"
                r="6.1587391"
                fx="0.5"
                fy="17.838446"
                id="radialGradient4067"
                xlink:href="#linearGradient4042-2"
                gradientUnits="userSpaceOnUse"
                gradientTransform="matrix(0.8118545,0.97422537,-1.1052481,0.9210397,19.809981,-8.4170292)"/>
        <radialGradient
                cx="8.5770311"
                cy="3.8663561"
                r="6.1587391"
                fx="8.5770311"
                fy="3.8663561"
                id="radialGradient4094"
                xlink:href="#linearGradient4042-2"
                gradientUnits="userSpaceOnUse"
                gradientTransform="matrix(0.81185454,1.1365964,-1.1707271,0.83623306,20.063146,-1.4817979)"/>
        <radialGradient
                cx="8.5770311"
                cy="3.8663561"
                r="6.1587391"
                fx="8.5770311"
                fy="3.8663561"
                id="radialGradient4097"
                xlink:href="#linearGradient4042-2"
                gradientUnits="userSpaceOnUse"
                gradientTransform="matrix(0.81185454,1.1365964,-1.1707271,0.83623306,20.063146,-1.4817979)"/>
        <radialGradient
                cx="8.5770311"
                cy="3.8663561"
                r="6.1587391"
                fx="8.5770311"
                fy="3.8663561"
                id="radialGradient4100"
                xlink:href="#linearGradient4042-2"
                gradientUnits="userSpaceOnUse"
                gradientTransform="matrix(0.81185454,1.1365964,-1.1707271,0.83623306,20.063146,-1.4817979)"/>
        <radialGradient
                cx="8.5770311"
                cy="3.8663561"
                r="6.1587391"
                fx="8.5770311"
                fy="3.8663561"
                id="radialGradient4103"
                xlink:href="#linearGradient4042-2"
                gradientUnits="userSpaceOnUse"
                gradientTransform="matrix(0.81185454,1.1365964,-1.1707271,0.83623306,20.063146,-1.4817979)"/>
        <radialGradient
                cx="0.5"
                cy="17.838446"
                r="6.1587391"
                fx="0.5"
                fy="17.838446"
                id="radialGradient4106"
                xlink:href="#linearGradient4042"
                gradientUnits="userSpaceOnUse"
                gradientTransform="matrix(0.8118545,0.97422537,-1.1052481,0.9210397,19.809981,-0.4170292)"/>
        <radialGradient
                cx="0.5"
                cy="17.838446"
                r="6.1587391"
                fx="0.5"
                fy="17.838446"
                id="radialGradient4109"
                xlink:href="#linearGradient4042"
                gradientUnits="userSpaceOnUse"
                gradientTransform="matrix(0.8118545,0.97422537,-1.1052481,0.9210397,19.809981,-0.4170292)"/>
        <radialGradient
                cx="0.5"
                cy="17.838446"
                r="6.1587391"
                fx="0.5"
                fy="17.838446"
                id="radialGradient4112"
                xlink:href="#linearGradient4042"
                gradientUnits="userSpaceOnUse"
                gradientTransform="matrix(0.8118545,0.97422537,-1.1052481,0.9210397,19.809981,-0.4170292)"/>
        <radialGradient
                cx="0.5"
                cy="17.838446"
                r="6.1587391"
                fx="0.5"
                fy="17.838446"
                id="radialGradient4115"
                xlink:href="#linearGradient4042"
                gradientUnits="userSpaceOnUse"
                gradientTransform="matrix(0.8118545,0.97422537,-1.1052481,0.9210397,19.809981,-0.4170292)"/>
        <radialGradient
                cx="0.5"
                cy="17.838446"
                r="6.1587391"
                fx="0.5"
                fy="17.838446"
                id="radialGradient4118"
                xlink:href="#linearGradient4042"
                gradientUnits="userSpaceOnUse"
                gradientTransform="matrix(0.8118545,0.97422537,-1.1052481,0.9210397,19.809981,-0.4170292)"/>
        <linearGradient
                x1="10.5"
                y1="10.5"
                x2="13.5"
                y2="18.5"
                id="linearGradient3663"
                xlink:href="#linearGradient3657"
                gradientUnits="userSpaceOnUse"/>
        <linearGradient
                x1="10.5"
                y1="10.5"
                x2="13.5"
                y2="18.5"
                id="linearGradient3669"
                xlink:href="#linearGradient3657"
                gradientUnits="userSpaceOnUse"
                gradientTransform="translate(0,-3)"/>
        <linearGradient
                x1="2"
                y1="20"
                x2="10"
                y2="20"
                id="linearGradient4708"
                xlink:href="#linearGradient4661"
                gradientUnits="userSpaceOnUse"/>
        <linearGradient
                id="linearGradient4661">
            <stop
                    id="stop4663"
                    style="stop-color:#969696;stop-opacity:1"
                    offset="0"/>
            <stop
                    id="stop4665"
                    style="stop-color:#969696;stop-opacity:0.26618704"
                    offset="1"/>
        </linearGradient>
        <linearGradient
                x1="10"
                y1="9"
                x2="4"
                y2="5"
                id="linearGradient4697"
                xlink:href="#linearGradient4691"
                gradientUnits="userSpaceOnUse"/>
        <linearGradient
                id="linearGradient4691">
            <stop
                    id="stop4693"
                    style="stop-color:#bebebe;stop-opacity:1"
                    offset="0"/>
            <stop
                    id="stop4695"
                    style="stop-color:#d7d7d7;stop-opacity:1"
                    offset="1"/>
        </linearGradient>
        <linearGradient
                id="linearGradient4691-5">
            <stop
                    id="stop4693-1"
                    style="stop-color:#5a8c5a;stop-opacity:1"
                    offset="0"/>
            <stop
                    id="stop4695-3"
                    style="stop-color:#9dc09d;stop-opacity:1"
                    offset="1"/>
        </linearGradient>
        <linearGradient
                x1="10"
                y1="9"
                x2="4"
                y2="5"
                id="linearGradient3079"
                xlink:href="#linearGradient4691-5"
                gradientUnits="userSpaceOnUse"
                gradientTransform="matrix(1.4943452,0,0,1.5138186,-1.3825451,-1.7707278)"/>
        <linearGradient
                x1="23"
                y1="15"
                x2="23"
                y2="21"
                id="linearGradient5188"
                xlink:href="#linearGradient4137"
                gradientUnits="userSpaceOnUse"
                gradientTransform="translate(0,8)"/>
        <linearGradient
                id="linearGradient4137">
            <stop
                    id="stop4139"
                    style="stop-color:#555753;stop-opacity:1"
                    offset="0"/>
            <stop
                    id="stop4141"
                    style="stop-color:#555753;stop-opacity:0"
                    offset="1"/>
        </linearGradient>
        <linearGradient
                x1="23"
                y1="15"
                x2="23"
                y2="21"
                id="linearGradient3111"
                xlink:href="#linearGradient4137"
                gradientUnits="userSpaceOnUse"
                gradientTransform="translate(-33,0)"/>
        <radialGradient
                cx="0.5"
                cy="17.838446"
                r="6.1587391"
                fx="0.5"
                fy="17.838446"
                id="radialGradient4048-4"
                xlink:href="#linearGradient4042"
                gradientUnits="userSpaceOnUse"
                gradientTransform="matrix(0.8118545,0.97422537,-1.1052481,0.9210397,19.809981,-0.4170292)"/>
        <radialGradient
                cx="8.5770311"
                cy="3.8663561"
                r="6.1587391"
                fx="8.5770311"
                fy="3.8663561"
                id="radialGradient4048-2-7"
                xlink:href="#linearGradient4042"
                gradientUnits="userSpaceOnUse"
                gradientTransform="matrix(0.81185454,1.1365964,-1.1707271,0.83623306,20.063146,-1.4817979)"/>
        <radialGradient
                cx="0.5"
                cy="17.838446"
                r="6.1587391"
                fx="0.5"
                fy="17.838446"
                id="radialGradient4067-0"
                xlink:href="#linearGradient4042"
                gradientUnits="userSpaceOnUse"
                gradientTransform="matrix(0.8118545,0.97422537,-1.1052481,0.9210397,19.809981,-8.4170292)"/>
        <radialGradient
                cx="8.5770311"
                cy="3.8663561"
                r="6.1587391"
                fx="8.5770311"
                fy="3.8663561"
                id="radialGradient4094-0"
                xlink:href="#linearGradient4042"
                gradientUnits="userSpaceOnUse"
                gradientTransform="matrix(0.81185454,1.1365964,-1.1707271,0.83623306,20.063146,-1.4817979)"/>
        <radialGradient
                cx="8.5770311"
                cy="3.8663561"
                r="6.1587391"
                fx="8.5770311"
                fy="3.8663561"
                id="radialGradient4097-7"
                xlink:href="#linearGradient4042"
                gradientUnits="userSpaceOnUse"
                gradientTransform="matrix(0.81185454,1.1365964,-1.1707271,0.83623306,20.063146,-1.4817979)"/>
        <radialGradient
                cx="8.5770311"
                cy="3.8663561"
                r="6.1587391"
                fx="8.5770311"
                fy="3.8663561"
                id="radialGradient4100-9"
                xlink:href="#linearGradient4042"
                gradientUnits="userSpaceOnUse"
                gradientTransform="matrix(0.81185454,1.1365964,-1.1707271,0.83623306,20.063146,-1.4817979)"/>
        <radialGradient
                cx="8.5770311"
                cy="3.8663561"
                r="6.1587391"
                fx="8.5770311"
                fy="3.8663561"
                id="radialGradient4103-5"
                xlink:href="#linearGradient4042"
                gradientUnits="userSpaceOnUse"
                gradientTransform="matrix(0.81185454,1.1365964,-1.1707271,0.83623306,20.063146,-1.4817979)"/>
        <radialGradient
                cx="0.5"
                cy="17.838446"
                r="6.1587391"
                fx="0.5"
                fy="17.838446"
                id="radialGradient4106-7"
                xlink:href="#linearGradient4042"
                gradientUnits="userSpaceOnUse"
                gradientTransform="matrix(0.8118545,0.97422537,-1.1052481,0.9210397,19.809981,-0.4170292)"/>
        <radialGradient
                cx="0.5"
                cy="17.838446"
                r="6.1587391"
                fx="0.5"
                fy="17.838446"
                id="radialGradient4109-3"
                xlink:href="#linearGradient4042"
                gradientUnits="userSpaceOnUse"
                gradientTransform="matrix(0.8118545,0.97422537,-1.1052481,0.9210397,19.809981,-0.4170292)"/>
        <radialGradient
                cx="0.5"
                cy="17.838446"
                r="6.1587391"
                fx="0.5"
                fy="17.838446"
                id="radialGradient4112-7"
                xlink:href="#linearGradient4042"
                gradientUnits="userSpaceOnUse"
                gradientTransform="matrix(0.8118545,0.97422537,-1.1052481,0.9210397,19.809981,-0.4170292)"/>
        <radialGradient
                cx="0.5"
                cy="17.838446"
                r="6.1587391"
                fx="0.5"
                fy="17.838446"
                id="radialGradient4115-6"
                xlink:href="#linearGradient4042"
                gradientUnits="userSpaceOnUse"
                gradientTransform="matrix(0.8118545,0.97422537,-1.1052481,0.9210397,19.809981,-0.4170292)"/>
        <radialGradient
                cx="0.5"
                cy="17.838446"
                r="6.1587391"
                fx="0.5"
                fy="17.838446"
                id="radialGradient4118-3"
                xlink:href="#linearGradient4042"
                gradientUnits="userSpaceOnUse"
                gradientTransform="matrix(0.8118545,0.97422537,-1.1052481,0.9210397,19.809981,-0.4170292)"/>
        <linearGradient
                x1="10.5"
                y1="10.5"
                x2="13.5"
                y2="18.5"
                id="linearGradient4402"
                xlink:href="#linearGradient3657"
                gradientUnits="userSpaceOnUse"/>
        <linearGradient
                x1="10.5"
                y1="10.5"
                x2="13.5"
                y2="18.5"
                id="linearGradient4404"
                xlink:href="#linearGradient3657"
                gradientUnits="userSpaceOnUse"
                gradientTransform="translate(0,-3)"/>
        <linearGradient
                x1="10"
                y1="9"
                x2="4"
                y2="5"
                id="linearGradient4419"
                xlink:href="#linearGradient4691-5"
                gradientUnits="userSpaceOnUse"
                gradientTransform="matrix(1.4943452,0,0,1.5138186,-1.3825451,-1.7707278)"/>
        <linearGradient
                x1="23"
                y1="15"
                x2="23"
                y2="21"
                id="linearGradient4421"
                xlink:href="#linearGradient4137"
                gradientUnits="userSpaceOnUse"
                gradientTransform="translate(-33,0)"/>
        <linearGradient
                x1="23"
                y1="15"
                x2="23"
                y2="21"
                id="linearGradient4423"
                xlink:href="#linearGradient4137"
                gradientUnits="userSpaceOnUse"
                gradientTransform="translate(-33,0)"/>
        <filter
                x="-0.25"
                y="-0.25"
                width="1.5"
                height="1.5"
                color-interpolation-filters="sRGB"
                id="filter4128">
            <feGaussianBlur
                    result="blur"
                    stdDeviation="2.000000"
                    in="SourceAlpha"
                    id="feGaussianBlur4130"/>
            <feColorMatrix
                    values="1 0 0 0 0 0 1 0 0 0 0 0 1 0 0 0 0 0 0.351000 0 "
                    type="matrix"
                    result="bluralpha"
                    id="feColorMatrix4132"/>
            <feOffset
                    result="offsetBlur"
                    dy="7.500000"
                    dx="7.500000"
                    in="bluralpha"
                    id="feOffset4134"/>
            <feMerge
                    id="feMerge4136">
                <feMergeNode
                        in="offsetBlur"
                        id="feMergeNode4138"/>
                <feMergeNode
                        in="SourceGraphic"
                        id="feMergeNode4140"/>
            </feMerge>
        </filter>
        <radialGradient
                cx="0.5"
                cy="17.838446"
                r="6.1587391"
                fx="0.5"
                fy="17.838446"
                id="radialGradient4048-3"
                xlink:href="#linearGradient4042"
                gradientUnits="userSpaceOnUse"
                gradientTransform="matrix(0.8118545,0.97422537,-1.1052481,0.9210397,19.809981,-0.4170292)"/>
        <radialGradient
                cx="8.5770311"
                cy="3.8663561"
                r="6.1587391"
                fx="8.5770311"
                fy="3.8663561"
                id="radialGradient4048-2-0"
                xlink:href="#linearGradient4042"
                gradientUnits="userSpaceOnUse"
                gradientTransform="matrix(0.81185454,1.1365964,-1.1707271,0.83623306,20.063146,-1.4817979)"/>
        <radialGradient
                cx="0.5"
                cy="17.838446"
                r="6.1587391"
                fx="0.5"
                fy="17.838446"
                id="radialGradient4067-4"
                xlink:href="#linearGradient4042"
                gradientUnits="userSpaceOnUse"
                gradientTransform="matrix(0.8118545,0.97422537,-1.1052481,0.9210397,19.809981,-8.4170292)"/>
        <radialGradient
                cx="8.5770311"
                cy="3.8663561"
                r="6.1587391"
                fx="8.5770311"
                fy="3.8663561"
                id="radialGradient4094-8"
                xlink:href="#linearGradient4042"
                gradientUnits="userSpaceOnUse"
                gradientTransform="matrix(0.81185454,1.1365964,-1.1707271,0.83623306,20.063146,-1.4817979)"/>
        <radialGradient
                cx="8.5770311"
                cy="3.8663561"
                r="6.1587391"
                fx="8.5770311"
                fy="3.8663561"
                id="radialGradient4097-3"
                xlink:href="#linearGradient4042"
                gradientUnits="userSpaceOnUse"
                gradientTransform="matrix(0.81185454,1.1365964,-1.1707271,0.83623306,20.063146,-1.4817979)"/>
        <radialGradient
                cx="8.5770311"
                cy="3.8663561"
                r="6.1587391"
                fx="8.5770311"
                fy="3.8663561"
                id="radialGradient4100-00"
                xlink:href="#linearGradient4042"
                gradientUnits="userSpaceOnUse"
                gradientTransform="matrix(0.81185454,1.1365964,-1.1707271,0.83623306,20.063146,-1.4817979)"/>
        <radialGradient
                cx="8.5770311"
                cy="3.8663561"
                r="6.1587391"
                fx="8.5770311"
                fy="3.8663561"
                id="radialGradient4103-4"
                xlink:href="#linearGradient4042"
                gradientUnits="userSpaceOnUse"
                gradientTransform="matrix(0.81185454,1.1365964,-1.1707271,0.83623306,20.063146,-1.4817979)"/>
        <radialGradient
                cx="0.5"
                cy="17.838446"
                r="6.1587391"
                fx="0.5"
                fy="17.838446"
                id="radialGradient4106-22"
                xlink:href="#linearGradient4042"
                gradientUnits="userSpaceOnUse"
                gradientTransform="matrix(0.8118545,0.97422537,-1.1052481,0.9210397,19.809981,-0.4170292)"/>
        <radialGradient
                cx="0.5"
                cy="17.838446"
                r="6.1587391"
                fx="0.5"
                fy="17.838446"
                id="radialGradient4109-4"
                xlink:href="#linearGradient4042"
                gradientUnits="userSpaceOnUse"
                gradientTransform="matrix(0.8118545,0.97422537,-1.1052481,0.9210397,19.809981,-0.4170292)"/>
        <radialGradient
                cx="0.5"
                cy="17.838446"
                r="6.1587391"
                fx="0.5"
                fy="17.838446"
                id="radialGradient4112-4"
                xlink:href="#linearGradient4042"
                gradientUnits="userSpaceOnUse"
                gradientTransform="matrix(0.8118545,0.97422537,-1.1052481,0.9210397,19.809981,-0.4170292)"/>
        <radialGradient
                cx="0.5"
                cy="17.838446"
                r="6.1587391"
                fx="0.5"
                fy="17.838446"
                id="radialGradient4115-78"
                xlink:href="#linearGradient4042"
                gradientUnits="userSpaceOnUse"
                gradientTransform="matrix(0.8118545,0.97422537,-1.1052481,0.9210397,19.809981,-0.4170292)"/>
        <radialGradient
                cx="0.5"
                cy="17.838446"
                r="6.1587391"
                fx="0.5"
                fy="17.838446"
                id="radialGradient4118-6"
                xlink:href="#linearGradient4042"
                gradientUnits="userSpaceOnUse"
                gradientTransform="matrix(0.8118545,0.97422537,-1.1052481,0.9210397,19.809981,-0.4170292)"/>
        <linearGradient
                x1="10.5"
                y1="10.5"
                x2="13.5"
                y2="18.5"
                id="linearGradient4628"
                xlink:href="#linearGradient3657"
                gradientUnits="userSpaceOnUse"/>
        <linearGradient
                x1="10.5"
                y1="10.5"
                x2="13.5"
                y2="18.5"
                id="linearGradient4630"
                xlink:href="#linearGradient3657"
                gradientUnits="userSpaceOnUse"
                gradientTransform="translate(0,-3)"/>
        <radialGradient
                cx="0.5"
                cy="17.838446"
                r="6.1587391"
                fx="0.5"
                fy="17.838446"
                id="radialGradient4048-1"
                xlink:href="#linearGradient4042"
                gradientUnits="userSpaceOnUse"
                gradientTransform="matrix(0.8118545,0.97422537,-1.1052481,0.9210397,19.809981,-0.4170292)"/>
        <radialGradient
                cx="8.5770311"
                cy="3.8663561"
                r="6.1587391"
                fx="8.5770311"
                fy="3.8663561"
                id="radialGradient4048-2-9"
                xlink:href="#linearGradient4042"
                gradientUnits="userSpaceOnUse"
                gradientTransform="matrix(0.81185454,1.1365964,-1.1707271,0.83623306,20.063146,-1.4817979)"/>
        <radialGradient
                cx="0.5"
                cy="17.838446"
                r="6.1587391"
                fx="0.5"
                fy="17.838446"
                id="radialGradient4067-9"
                xlink:href="#linearGradient4042"
                gradientUnits="userSpaceOnUse"
                gradientTransform="matrix(0.8118545,0.97422537,-1.1052481,0.9210397,19.809981,-8.4170292)"/>
        <radialGradient
                cx="8.5770311"
                cy="3.8663561"
                r="6.1587391"
                fx="8.5770311"
                fy="3.8663561"
                id="radialGradient4094-6"
                xlink:href="#linearGradient4042"
                gradientUnits="userSpaceOnUse"
                gradientTransform="matrix(0.81185454,1.1365964,-1.1707271,0.83623306,20.063146,-1.4817979)"/>
        <radialGradient
                cx="8.5770311"
                cy="3.8663561"
                r="6.1587391"
                fx="8.5770311"
                fy="3.8663561"
                id="radialGradient4097-76"
                xlink:href="#linearGradient4042"
                gradientUnits="userSpaceOnUse"
                gradientTransform="matrix(0.81185454,1.1365964,-1.1707271,0.83623306,20.063146,-1.4817979)"/>
        <radialGradient
                cx="8.5770311"
                cy="3.8663561"
                r="6.1587391"
                fx="8.5770311"
                fy="3.8663561"
                id="radialGradient4100-0"
                xlink:href="#linearGradient4042"
                gradientUnits="userSpaceOnUse"
                gradientTransform="matrix(0.81185454,1.1365964,-1.1707271,0.83623306,20.063146,-1.4817979)"/>
        <radialGradient
                cx="8.5770311"
                cy="3.8663561"
                r="6.1587391"
                fx="8.5770311"
                fy="3.8663561"
                id="radialGradient4103-58"
                xlink:href="#linearGradient4042"
                gradientUnits="userSpaceOnUse"
                gradientTransform="matrix(0.81185454,1.1365964,-1.1707271,0.83623306,20.063146,-1.4817979)"/>
        <radialGradient
                cx="0.5"
                cy="17.838446"
                r="6.1587391"
                fx="0.5"
                fy="17.838446"
                id="radialGradient4106-2"
                xlink:href="#linearGradient4042"
                gradientUnits="userSpaceOnUse"
                gradientTransform="matrix(0.8118545,0.97422537,-1.1052481,0.9210397,19.809981,-0.4170292)"/>
        <radialGradient
                cx="0.5"
                cy="17.838446"
                r="6.1587391"
                fx="0.5"
                fy="17.838446"
                id="radialGradient4109-8"
                xlink:href="#linearGradient4042"
                gradientUnits="userSpaceOnUse"
                gradientTransform="matrix(0.8118545,0.97422537,-1.1052481,0.9210397,19.809981,-0.4170292)"/>
        <radialGradient
                cx="0.5"
                cy="17.838446"
                r="6.1587391"
                fx="0.5"
                fy="17.838446"
                id="radialGradient4112-78"
                xlink:href="#linearGradient4042"
                gradientUnits="userSpaceOnUse"
                gradientTransform="matrix(0.8118545,0.97422537,-1.1052481,0.9210397,19.809981,-0.4170292)"/>
        <radialGradient
                cx="0.5"
                cy="17.838446"
                r="6.1587391"
                fx="0.5"
                fy="17.838446"
                id="radialGradient4115-7"
                xlink:href="#linearGradient4042"
                gradientUnits="userSpaceOnUse"
                gradientTransform="matrix(0.8118545,0.97422537,-1.1052481,0.9210397,19.809981,-0.4170292)"/>
        <radialGradient
                cx="0.5"
                cy="17.838446"
                r="6.1587391"
                fx="0.5"
                fy="17.838446"
                id="radialGradient4118-5"
                xlink:href="#linearGradient4042"
                gradientUnits="userSpaceOnUse"
                gradientTransform="matrix(0.8118545,0.97422537,-1.1052481,0.9210397,19.809981,-0.4170292)"/>
        <linearGradient
                x1="10.5"
                y1="10.5"
                x2="13.5"
                y2="18.5"
                id="linearGradient4502"
                xlink:href="#linearGradient3657"
                gradientUnits="userSpaceOnUse"/>
        <linearGradient
                x1="10.5"
                y1="10.5"
                x2="13.5"
                y2="18.5"
                id="linearGradient4504"
                xlink:href="#linearGradient3657"
                gradientUnits="userSpaceOnUse"
                gradientTransform="translate(0,-3)"/>
        <linearGradient
                x1="10"
                y1="9"
                x2="4"
                y2="5"
                id="linearGradient4682"
                xlink:href="#linearGradient4691-5"
                gradientUnits="userSpaceOnUse"
                gradientTransform="matrix(1.4943452,0,0,1.5138186,-1.3825451,-1.7707278)"/>
        <radialGradient
                cx="0.5"
                cy="17.838446"
                r="6.1587391"
                fx="0.5"
                fy="17.838446"
                id="radialGradient4048-4-0"
                xlink:href="#linearGradient4042"
                gradientUnits="userSpaceOnUse"
                gradientTransform="matrix(0.8118545,0.97422537,-1.1052481,0.9210397,19.809981,-0.4170292)"/>
        <radialGradient
                cx="8.5770311"
                cy="3.8663561"
                r="6.1587391"
                fx="8.5770311"
                fy="3.8663561"
                id="radialGradient4048-2-7-5"
                xlink:href="#linearGradient4042"
                gradientUnits="userSpaceOnUse"
                gradientTransform="matrix(0.81185454,1.1365964,-1.1707271,0.83623306,20.063146,-1.4817979)"/>
        <radialGradient
                cx="0.5"
                cy="17.838446"
                r="6.1587391"
                fx="0.5"
                fy="17.838446"
                id="radialGradient4067-0-4"
                xlink:href="#linearGradient4042"
                gradientUnits="userSpaceOnUse"
                gradientTransform="matrix(0.8118545,0.97422537,-1.1052481,0.9210397,19.809981,-8.4170292)"/>
        <radialGradient
                cx="8.5770311"
                cy="3.8663561"
                r="6.1587391"
                fx="8.5770311"
                fy="3.8663561"
                id="radialGradient4094-0-6"
                xlink:href="#linearGradient4042"
                gradientUnits="userSpaceOnUse"
                gradientTransform="matrix(0.81185454,1.1365964,-1.1707271,0.83623306,20.063146,-1.4817979)"/>
        <radialGradient
                cx="8.5770311"
                cy="3.8663561"
                r="6.1587391"
                fx="8.5770311"
                fy="3.8663561"
                id="radialGradient4097-7-8"
                xlink:href="#linearGradient4042"
                gradientUnits="userSpaceOnUse"
                gradientTransform="matrix(0.81185454,1.1365964,-1.1707271,0.83623306,20.063146,-1.4817979)"/>
        <radialGradient
                cx="8.5770311"
                cy="3.8663561"
                r="6.1587391"
                fx="8.5770311"
                fy="3.8663561"
                id="radialGradient4100-9-5"
                xlink:href="#linearGradient4042"
                gradientUnits="userSpaceOnUse"
                gradientTransform="matrix(0.81185454,1.1365964,-1.1707271,0.83623306,20.063146,-1.4817979)"/>
        <radialGradient
                cx="8.5770311"
                cy="3.8663561"
                r="6.1587391"
                fx="8.5770311"
                fy="3.8663561"
                id="radialGradient4103-5-1"
                xlink:href="#linearGradient4042"
                gradientUnits="userSpaceOnUse"
                gradientTransform="matrix(0.81185454,1.1365964,-1.1707271,0.83623306,20.063146,-1.4817979)"/>
        <radialGradient
                cx="0.5"
                cy="17.838446"
                r="6.1587391"
                fx="0.5"
                fy="17.838446"
                id="radialGradient4106-7-0"
                xlink:href="#linearGradient4042"
                gradientUnits="userSpaceOnUse"
                gradientTransform="matrix(0.8118545,0.97422537,-1.1052481,0.9210397,19.809981,-0.4170292)"/>
        <radialGradient
                cx="0.5"
                cy="17.838446"
                r="6.1587391"
                fx="0.5"
                fy="17.838446"
                id="radialGradient4109-3-2"
                xlink:href="#linearGradient4042"
                gradientUnits="userSpaceOnUse"
                gradientTransform="matrix(0.8118545,0.97422537,-1.1052481,0.9210397,19.809981,-0.4170292)"/>
        <radialGradient
                cx="0.5"
                cy="17.838446"
                r="6.1587391"
                fx="0.5"
                fy="17.838446"
                id="radialGradient4112-7-1"
                xlink:href="#linearGradient4042"
                gradientUnits="userSpaceOnUse"
                gradientTransform="matrix(0.8118545,0.97422537,-1.1052481,0.9210397,19.809981,-0.4170292)"/>
        <radialGradient
                cx="0.5"
                cy="17.838446"
                r="6.1587391"
                fx="0.5"
                fy="17.838446"
                id="radialGradient4115-6-3"
                xlink:href="#linearGradient4042"
                gradientUnits="userSpaceOnUse"
                gradientTransform="matrix(0.8118545,0.97422537,-1.1052481,0.9210397,19.809981,-0.4170292)"/>
        <radialGradient
                cx="0.5"
                cy="17.838446"
                r="6.1587391"
                fx="0.5"
                fy="17.838446"
                id="radialGradient4118-3-3"
                xlink:href="#linearGradient4042"
                gradientUnits="userSpaceOnUse"
                gradientTransform="matrix(0.8118545,0.97422537,-1.1052481,0.9210397,19.809981,-0.4170292)"/>
        <linearGradient
                x1="10.5"
                y1="10.5"
                x2="13.5"
                y2="18.5"
                id="linearGradient4718"
                xlink:href="#linearGradient3657"
                gradientUnits="userSpaceOnUse"/>
        <linearGradient
                x1="10.5"
                y1="10.5"
                x2="13.5"
                y2="18.5"
                id="linearGradient4720"
                xlink:href="#linearGradient3657"
                gradientUnits="userSpaceOnUse"
                gradientTransform="translate(0,-3)"/>
        <linearGradient
                x1="23"
                y1="15"
                x2="23"
                y2="21"
                id="linearGradient3226"
                xlink:href="#linearGradient4137-3"
                gradientUnits="userSpaceOnUse"
                gradientTransform="translate(-33,0)"/>
        <linearGradient
                id="linearGradient4137-3">
            <stop
                    id="stop4139-5"
                    style="stop-color:#555753;stop-opacity:1"
                    offset="0"/>
            <stop
                    id="stop4141-1"
                    style="stop-color:#555753;stop-opacity:0"
                    offset="1"/>
        </linearGradient>
        <filter
                y="-0.25"
                x="-0.25"
                height="1.5"
                width="1.5"
                inkscape:label="Drop shadow"
                id="filter4128-3">
            <feGaussianBlur
                    result="blur"
                    stdDeviation="2.000000"
                    in="SourceAlpha"
                    id="feGaussianBlur4130-6"/>
            <feColorMatrix
                    values="1 0 0 0 0 0 1 0 0 0 0 0 1 0 0 0 0 0 0.351000 0 "
                    type="matrix"
                    result="bluralpha"
                    id="feColorMatrix4132-7"/>
            <feOffset
                    result="offsetBlur"
                    dy="7.500000"
                    dx="7.500000"
                    in="bluralpha"
                    id="feOffset4134-5"/>
            <feMerge
                    id="feMerge4136-3">
                <feMergeNode
                        in="offsetBlur"
                        id="feMergeNode4138-5"/>
                <feMergeNode
                        in="SourceGraphic"
                        id="feMergeNode4140-6"/>
            </feMerge>
        </filter>
    </defs>
    <metadata
            id="metadata5697">
        <rdf:RDF>
            <cc:Work
                    rdf:about="">
                <dc:format>image/svg+xml</dc:format>
                <dc:type
                        rdf:resource="http://purl.org/dc/dcmitype/StillImage"/>
                <dc:title>ring fill</dc:title>
                <dc:date>2014-02-04</dc:date>
                <dc:creator>
                    <cc:Agent>
                        <dc:title>Robert Szczepanek</dc:title>
                    </cc:Agent>
                </dc:creator>
                <dc:rights>
                    <cc:Agent>
                        <dc:title/>
                    </cc:Agent>
                </dc:rights>
                <dc:subject>
                    <rdf:Bag>
                        <rdf:li>ring fill</rdf:li>
                    </rdf:Bag>
                </dc:subject>
                <dc:coverage>GIS icons 0.2</dc:coverage>
                <cc:license
                        rdf:resource="http://creativecommons.org/licenses/by-sa/3.0/"/>
            </cc:Work>
            <cc:License
                    rdf:about="http://creativecommons.org/licenses/by-sa/3.0/">
                <cc:permits
                        rdf:resource="http://creativecommons.org/ns#Reproduction"/>
                <cc:permits
                        rdf:resource="http://creativecommons.org/ns#Distribution"/>
                <cc:requires
                        rdf:resource="http://creativecommons.org/ns#Notice"/>
                <cc:requires
                        rdf:resource="http://creativecommons.org/ns#Attribution"/>
                <cc:permits
                        rdf:resource="http://creativecommons.org/ns#DerivativeWorks"/>
                <cc:requires
                        rdf:resource="http://creativecommons.org/ns#ShareAlike"/>
            </cc:License>
        </rdf:RDF>
    </metadata>
    <g
            style="fill-rule:nonzero;stroke:#415a75;stroke-miterlimit:4;stroke-opacity:1"
            id="orginal-6"
            transform="matrix(0.04360941,0,0,0.04360941,-46.376673,-10.776439)"/>
    <path
            inkscape:connector-curvature="0"
            style="fill-rule:nonzero;stroke:#415a75;stroke-width:0.13082823;stroke-linecap:round;stroke-linejoin:round;stroke-miterlimit:4;stroke-opacity:1"
            id="path2484"
            d=""/>
    <g
            id="g17542"
            transform="matrix(0.87086715,0.60537237,-0.57077964,0.82110328,-5.6202938,-17.461234)">
        <path
                inkscape:connector-curvature="0"
                style="display:inline;fill:#ff0000;fill-opacity:0.84313725;stroke:none"
                id="path3957-9"
                d="m 19.983871,13.000001 0,-5.2500002 0.483871,0 0.483871,0 0,5.2500002 0,5.249999 -0.483871,0 -0.483871,0 0,-5.249999 z"/>
        <path
                inkscape:connector-curvature="0"
                style="display:inline;fill:#ff0000;fill-opacity:0.84313725;stroke:none"
                id="path3957-4-6"
                d="m 23.516129,13.000001 0,-5.2500002 0.483871,0 0.483871,0 0,5.2500002 0,5.249999 -0.483871,0 -0.483871,0 0,-5.249999 z"/>
        <path
                inkscape:connector-curvature="0"
                style="display:inline;fill:#ff0000;fill-opacity:0.84313725;stroke:none"
                id="path3957-44-5"
                d="m 27.016129,13.000001 0,-5.2500002 0.483871,0 0.483871,0 0,5.2500002 0,5.249999 -0.483871,0 -0.483871,0 0,-5.249999 z"/>
        <path
                inkscape:connector-curvature="0"
                style="display:inline;fill:#ff0000;fill-opacity:0.84313725;stroke:none"
                id="path3957-2-7"
                d="m 30.516129,13.000001 0,-5.2500002 0.483871,0 0.483871,0 0,5.2500002 0,5.249999 -0.483871,0 -0.483871,0 0,-5.249999 z"/>
        <path
                inkscape:connector-curvature="0"
                style="display:inline;fill:#ff0000;fill-opacity:0.84313725;stroke:none"
                id="path3957-2-2-1"
                d="m 22.233871,7.7500008 2.25,0 0,0.483871 0,0.483871 -2.25,0 -2.25,0 0,-0.483871 0,-0.483871 2.25,0 z"/>
        <path
                inkscape:connector-curvature="0"
                style="display:inline;fill:#ff0000;fill-opacity:0.84313725;stroke:none"
                id="path3957-2-2-7-8"
                d="m 25.733871,18.25 2.25,0 0,0.483871 0,0.483871 -2.25,0 -2.25,0 0,-0.483871 0,-0.483871 2.25,0 z"/>
        <path
                inkscape:connector-curvature="0"
                style="display:inline;fill:#ff0000;fill-opacity:0.84313725;stroke:none"
                id="path3957-2-2-9-3"
                d="m 29.233871,7.7500008 2.25,0 0,0.483871 0,0.483871 -2.25,0 -2.25,0 0,-0.483871 0,-0.483871 2.25,0 z"/>
        <path
                inkscape:connector-curvature="0"
                style="display:inline;fill:#ff0000;fill-opacity:0.84313725;stroke:none"
                id="path3957-2-2-3-2"
                d="m 32.733871,18.25 2.25,0 0,0.483871 0,0.483871 -2.25,0 -2.25,0 0,-0.483871 0,-0.483871 2.25,0 z"/>
        <path
                inkscape:connector-curvature="0"
                style="display:inline;fill:#ff0000;fill-opacity:0.84313725;stroke:none"
                id="path3957-44-1-4"
                d="m 34.016129,13.000001 0,-5.2500002 0.483871,0 0.483871,0 0,5.2500002 0,5.249999 -0.483871,0 -0.483871,0 0,-5.249999 z"/>
        <path
                inkscape:connector-curvature="0"
                style="display:inline;fill:#ff0000;fill-opacity:0.84313725;stroke:none"
                id="path4059-8"
                transform="matrix(1.6666667,0,0,1.6666667,15.900538,-13.000001)"
                d="m 3.5,18.75 a 0.75,0.75 0 1 1 -1.5,0 0.75,0.75 0 1 1 1.5,0 z"/>
        <path
                inkscape:connector-curvature="0"
                style="display:inline;fill:#ff0000;fill-opacity:0.84313725;stroke:none"
                id="path4059-5-1"
                transform="matrix(1.6666667,0,0,1.6666667,29.900538,-23.000001)"
                d="m 3.5,18.75 a 0.75,0.75 0 1 1 -1.5,0 0.75,0.75 0 1 1 1.5,0 z"/>
    </g>
    <rect
            rx="0.94995022"
            ry="0.75428033"
            style="display:inline;overflow:visible;visibility:visible;fill:#6d97c4;fill-opacity:1;fill-rule:evenodd;stroke:#415a75;stroke-width:0.40228283;stroke-linecap:round;stroke-linejoin:round;stroke-miterlimit:4;stroke-dasharray:none;stroke-dashoffset:0;stroke-opacity:1;marker:none;enable-background:accumulate"
            id="rect7391"
            width="9.654789"
            height="10.308497"
            x="13.39112"
            y="12.778762"/>
    <rect
            style="display:inline;overflow:visible;visibility:visible;fill:#ededed;fill-opacity:1;fill-rule:evenodd;stroke:#666666;stroke-width:0.25142679;stroke-linecap:round;stroke-linejoin:round;stroke-miterlimit:4;stroke-dasharray:none;stroke-dashoffset:0;stroke-opacity:1;marker:none;enable-background:accumulate"
            id="rect7393"
            width="7.0399499"
            height="4.525682"
            x="14.698541"
            y="13.080473"
            ry="0.25142679"
            rx="0.25142679"/>
    <path
            inkscape:connector-curvature="0"
            style="display:inline;fill:none;stroke:#666666;stroke-width:0.50285357;stroke-linecap:round;stroke-linejoin:miter;stroke-miterlimit:4;stroke-dasharray:none;stroke-opacity:1;enable-background:new"
            d="m 15.704244,14.337608 5.028536,0"
            id="path7395"
            sodipodi:nodetypes="cc"/>
    <rect
            style="display:inline;overflow:visible;visibility:visible;fill:#ededed;fill-opacity:1;fill-rule:evenodd;stroke:#666666;stroke-width:0.30171216;stroke-linecap:round;stroke-linejoin:round;stroke-miterlimit:4;stroke-dasharray:none;stroke-dashoffset:0;stroke-opacity:1;marker:none;enable-background:accumulate"
            id="rect7402"
            width="6.0288172"
            height="3.5115068"
            x="15.206819"
            y="19.374611"/>
    <rect
            style="display:inline;overflow:visible;visibility:visible;fill:#415a75;fill-opacity:1;fill-rule:evenodd;stroke:#e6e6e6;stroke-width:0.50082546;stroke-linecap:round;stroke-linejoin:round;stroke-miterlimit:4;stroke-dasharray:none;stroke-dashoffset:0;stroke-opacity:1;marker:none;enable-background:accumulate"
            id="rect7404"
            width="2.007797"
            height="2.4985213"
            x="15.70877"
            y="19.823893"/>
    <g
            transform="matrix(0.02683712,0,0,0.02683712,-22.02671,29.727465)"
            id="orginal"
            style="display:inline;fill:none;stroke:#415a75;stroke-miterlimit:4;stroke-opacity:1;filter:url(#filter4128-3)"/>
    <g
            transform="matrix(0.02192914,0,0,0.02192914,-21.313167,32.443099)"
            style="display:inline;fill-rule:nonzero;stroke:#415a75;stroke-miterlimit:4;stroke-opacity:1"
            id="orginal-6-2"/>
    <path
            d=""
            style="display:inline;fill-rule:nonzero;stroke:#415a75;stroke-width:0.06578744;stroke-linecap:round;stroke-linejoin:round;stroke-miterlimit:4;stroke-opacity:1"
            id="path2484-9"
            inkscape:connector-curvature="0"/>
    <path
            inkscape:connector-curvature="0"
            style="display:inline;fill:none;stroke:#666666;stroke-width:0.50285357;stroke-linecap:round;stroke-linejoin:miter;stroke-miterlimit:4;stroke-dasharray:none;stroke-opacity:1;enable-background:new"
            d="m 15.704244,15.343316 5.028536,0"
            id="path7395-2"
            sodipodi:nodetypes="cc"/>
    <path
            inkscape:connector-curvature="0"
            style="display:inline;fill:none;stroke:#666666;stroke-width:0.50285357;stroke-linecap:round;stroke-linejoin:miter;stroke-miterlimit:4;stroke-dasharray:none;stroke-opacity:1;enable-background:new"
            d="m 15.704244,16.349023 5.028536,0"
            id="path7395-1"
            sodipodi:nodetypes="cc"/>
    <g
            style="display:inline"
            id="g4127"
            transform="matrix(0.53846171,0,0,0.53846171,6.7861754,6.7861744)">
        <rect
                rx="2.6149371"
                inkscape:export-filename="C:\Program Files\QGIS-Dev\themes\gis-0.1\mActionAddOgrLayer.png"
                style="display:inline;fill:#5a8c5a;fill-opacity:1;stroke:#555753;stroke-width:0;stroke-linejoin:round;stroke-miterlimit:4;stroke-dasharray:none;stroke-opacity:1"
                id="rect3563-8"
                width="13"
                height="13"
                x="19"
                y="19"
                inkscape:export-xdpi="120"
                inkscape:export-ydpi="120"
                ry="2.6149368"/>
        <path
                style="display:inline;opacity:0.3;fill:#fcffff;fill-rule:evenodd;stroke:none;enable-background:new"
                d="m 20.299998,25.499999 10.4,0 c 0,0 0,0 0,-2.6 0,-2.599999 -0.65,-2.599999 -5.2,-2.599999 -4.55,0 -5.2,0 -5.2,2.599999 0,2.6 0,2.6 0,2.6 z"
                id="path6992-5"
                sodipodi:nodetypes="ccsssc"
                inkscape:connector-curvature="0"/>
        <path
                sodipodi:nodetypes="cc"
                id="path3807"
                d="m 22.935724,28.064275 5.128551,-5.128551"
                style="display:inline;overflow:visible;visibility:visible;fill:#ffffff;fill-opacity:1;fill-rule:evenodd;stroke:#ffffff;stroke-width:2.87144852;stroke-linecap:round;stroke-linejoin:round;stroke-miterlimit:4;stroke-dasharray:none;stroke-dashoffset:0;stroke-opacity:1;marker:none;enable-background:accumulate"
                inkscape:connector-curvature="0"/>
    </g>
</svg>
