<?xml version="1.0" encoding="UTF-8" standalone="no"?>
<!-- Created with Inkscape (http://www.inkscape.org/) -->

<svg
        xmlns:dc="http://purl.org/dc/elements/1.1/"
        xmlns:cc="http://creativecommons.org/ns#"
        xmlns:rdf="http://www.w3.org/1999/02/22-rdf-syntax-ns#"
        xmlns:xlink="http://www.w3.org/1999/xlink"
        xmlns:sodipodi="http://sodipodi.sourceforge.net/DTD/sodipodi-0.dtd"
        xmlns:inkscape="http://www.inkscape.org/namespaces/inkscape"
        xmlns="http://www.w3.org/2000/svg"
        version="1.1"
        width="24"
        height="24"
        viewBox="0 0 24 24"
        id="svg5692"
        style="display:inline"
        inkscape:version="0.91 r13725"
        sodipodi:docname="mActionEditWaypoints.svg">
    <sodipodi:namedview
            pagecolor="#ffffff"
            bordercolor="#666666"
            borderopacity="1"
            objecttolerance="10"
            gridtolerance="10"
            guidetolerance="10"
            inkscape:pageopacity="0"
            inkscape:pageshadow="2"
            inkscape:window-width="1615"
            inkscape:window-height="1026"
            id="namedview145"
            showgrid="false"
            inkscape:zoom="9.8333334"
            inkscape:cx="34.978672"
            inkscape:cy="26.94508"
            inkscape:window-x="65"
            inkscape:window-y="24"
            inkscape:window-maximized="1"
            inkscape:current-layer="svg5692"/>
    <title
            id="title3062">ring fill
    </title>
    <defs
            id="defs5694">
        <linearGradient
                id="linearGradient3657">
            <stop
                    id="stop3659"
                    style="stop-color:#fce94f;stop-opacity:1"
                    offset="0"/>
            <stop
                    id="stop3661"
                    style="stop-color:#e7ce04;stop-opacity:1"
                    offset="1"/>
        </linearGradient>
        <linearGradient
                id="linearGradient2877">
            <stop
                    id="stop2879"
                    style="stop-color:#edd400;stop-opacity:1"
                    offset="0"/>
            <stop
                    id="stop2881"
                    style="stop-color:#c2ad00;stop-opacity:1"
                    offset="1"/>
        </linearGradient>
        <linearGradient
                id="linearGradient4042">
            <stop
                    id="stop4044"
                    style="stop-color:#f2d6a9;stop-opacity:1"
                    offset="0"/>
            <stop
                    id="stop4046"
                    style="stop-color:#e9b96e;stop-opacity:1"
                    offset="1"/>
        </linearGradient>
        <linearGradient
                id="linearGradient2843">
            <stop
                    id="stop2845"
                    style="stop-color:#eeeeec;stop-opacity:1"
                    offset="0"/>
            <stop
                    id="stop2847"
                    style="stop-color:#c8c8c2;stop-opacity:1"
                    offset="1"/>
        </linearGradient>
        <linearGradient
                id="linearGradient2835">
            <stop
                    id="stop2837"
                    style="stop-color:#ccf2a6;stop-opacity:1"
                    offset="0"/>
            <stop
                    id="stop2839"
                    style="stop-color:#8ae234;stop-opacity:1"
                    offset="1"/>
        </linearGradient>
        <radialGradient
                cx="0.5"
                cy="17.838446"
                r="6.1587391"
                fx="0.5"
                fy="17.838446"
                id="radialGradient4048"
                xlink:href="#linearGradient4042"
                gradientUnits="userSpaceOnUse"
                gradientTransform="matrix(0.8118545,0.97422537,-1.1052481,0.9210397,19.809981,-0.4170292)"/>
        <radialGradient
                cx="8.5770311"
                cy="3.8663561"
                r="6.1587391"
                fx="8.5770311"
                fy="3.8663561"
                id="radialGradient4048-2"
                xlink:href="#linearGradient4042-2"
                gradientUnits="userSpaceOnUse"
                gradientTransform="matrix(0.81185454,1.1365964,-1.1707271,0.83623306,20.063146,-1.4817979)"/>
        <linearGradient
                id="linearGradient4042-2">
            <stop
                    id="stop4044-8"
                    style="stop-color:#f2d6a9;stop-opacity:1"
                    offset="0"/>
            <stop
                    id="stop4046-4"
                    style="stop-color:#e9b96e;stop-opacity:1"
                    offset="1"/>
        </linearGradient>
        <radialGradient
                cx="0.5"
                cy="17.838446"
                r="6.1587391"
                fx="0.5"
                fy="17.838446"
                id="radialGradient4067"
                xlink:href="#linearGradient4042-2"
                gradientUnits="userSpaceOnUse"
                gradientTransform="matrix(0.8118545,0.97422537,-1.1052481,0.9210397,19.809981,-8.4170292)"/>
        <radialGradient
                cx="8.5770311"
                cy="3.8663561"
                r="6.1587391"
                fx="8.5770311"
                fy="3.8663561"
                id="radialGradient4094"
                xlink:href="#linearGradient4042-2"
                gradientUnits="userSpaceOnUse"
                gradientTransform="matrix(0.81185454,1.1365964,-1.1707271,0.83623306,20.063146,-1.4817979)"/>
        <radialGradient
                cx="8.5770311"
                cy="3.8663561"
                r="6.1587391"
                fx="8.5770311"
                fy="3.8663561"
                id="radialGradient4097"
                xlink:href="#linearGradient4042-2"
                gradientUnits="userSpaceOnUse"
                gradientTransform="matrix(0.81185454,1.1365964,-1.1707271,0.83623306,20.063146,-1.4817979)"/>
        <radialGradient
                cx="8.5770311"
                cy="3.8663561"
                r="6.1587391"
                fx="8.5770311"
                fy="3.8663561"
                id="radialGradient4100"
                xlink:href="#linearGradient4042-2"
                gradientUnits="userSpaceOnUse"
                gradientTransform="matrix(0.81185454,1.1365964,-1.1707271,0.83623306,20.063146,-1.4817979)"/>
        <radialGradient
                cx="8.5770311"
                cy="3.8663561"
                r="6.1587391"
                fx="8.5770311"
                fy="3.8663561"
                id="radialGradient4103"
                xlink:href="#linearGradient4042-2"
                gradientUnits="userSpaceOnUse"
                gradientTransform="matrix(0.81185454,1.1365964,-1.1707271,0.83623306,20.063146,-1.4817979)"/>
        <radialGradient
                cx="0.5"
                cy="17.838446"
                r="6.1587391"
                fx="0.5"
                fy="17.838446"
                id="radialGradient4106"
                xlink:href="#linearGradient4042"
                gradientUnits="userSpaceOnUse"
                gradientTransform="matrix(0.8118545,0.97422537,-1.1052481,0.9210397,19.809981,-0.4170292)"/>
        <radialGradient
                cx="0.5"
                cy="17.838446"
                r="6.1587391"
                fx="0.5"
                fy="17.838446"
                id="radialGradient4109"
                xlink:href="#linearGradient4042"
                gradientUnits="userSpaceOnUse"
                gradientTransform="matrix(0.8118545,0.97422537,-1.1052481,0.9210397,19.809981,-0.4170292)"/>
        <radialGradient
                cx="0.5"
                cy="17.838446"
                r="6.1587391"
                fx="0.5"
                fy="17.838446"
                id="radialGradient4112"
                xlink:href="#linearGradient4042"
                gradientUnits="userSpaceOnUse"
                gradientTransform="matrix(0.8118545,0.97422537,-1.1052481,0.9210397,19.809981,-0.4170292)"/>
        <radialGradient
                cx="0.5"
                cy="17.838446"
                r="6.1587391"
                fx="0.5"
                fy="17.838446"
                id="radialGradient4115"
                xlink:href="#linearGradient4042"
                gradientUnits="userSpaceOnUse"
                gradientTransform="matrix(0.8118545,0.97422537,-1.1052481,0.9210397,19.809981,-0.4170292)"/>
        <radialGradient
                cx="0.5"
                cy="17.838446"
                r="6.1587391"
                fx="0.5"
                fy="17.838446"
                id="radialGradient4118"
                xlink:href="#linearGradient4042"
                gradientUnits="userSpaceOnUse"
                gradientTransform="matrix(0.8118545,0.97422537,-1.1052481,0.9210397,19.809981,-0.4170292)"/>
        <linearGradient
                x1="10.5"
                y1="10.5"
                x2="13.5"
                y2="18.5"
                id="linearGradient3663"
                xlink:href="#linearGradient3657"
                gradientUnits="userSpaceOnUse"/>
        <linearGradient
                x1="10.5"
                y1="10.5"
                x2="13.5"
                y2="18.5"
                id="linearGradient3669"
                xlink:href="#linearGradient3657"
                gradientUnits="userSpaceOnUse"
                gradientTransform="translate(0,-3)"/>
        <linearGradient
                x1="2"
                y1="20"
                x2="10"
                y2="20"
                id="linearGradient4708"
                xlink:href="#linearGradient4661"
                gradientUnits="userSpaceOnUse"/>
        <linearGradient
                id="linearGradient4661">
            <stop
                    id="stop4663"
                    style="stop-color:#969696;stop-opacity:1"
                    offset="0"/>
            <stop
                    id="stop4665"
                    style="stop-color:#969696;stop-opacity:0.26618704"
                    offset="1"/>
        </linearGradient>
        <linearGradient
                x1="10"
                y1="9"
                x2="4"
                y2="5"
                id="linearGradient4697"
                xlink:href="#linearGradient4691"
                gradientUnits="userSpaceOnUse"/>
        <linearGradient
                id="linearGradient4691">
            <stop
                    id="stop4693"
                    style="stop-color:#bebebe;stop-opacity:1"
                    offset="0"/>
            <stop
                    id="stop4695"
                    style="stop-color:#d7d7d7;stop-opacity:1"
                    offset="1"/>
        </linearGradient>
        <linearGradient
                id="linearGradient4691-5">
            <stop
                    id="stop4693-1"
                    style="stop-color:#5a8c5a;stop-opacity:1"
                    offset="0"/>
            <stop
                    id="stop4695-3"
                    style="stop-color:#9dc09d;stop-opacity:1"
                    offset="1"/>
        </linearGradient>
        <linearGradient
                x1="10"
                y1="9"
                x2="4"
                y2="5"
                id="linearGradient3079"
                xlink:href="#linearGradient4691-5"
                gradientUnits="userSpaceOnUse"
                gradientTransform="matrix(1.4943452,0,0,1.5138186,-1.3825451,-1.7707278)"/>
        <linearGradient
                x1="23"
                y1="15"
                x2="23"
                y2="21"
                id="linearGradient5188"
                xlink:href="#linearGradient4137"
                gradientUnits="userSpaceOnUse"
                gradientTransform="translate(0,8)"/>
        <linearGradient
                id="linearGradient4137">
            <stop
                    id="stop4139"
                    style="stop-color:#555753;stop-opacity:1"
                    offset="0"/>
            <stop
                    id="stop4141"
                    style="stop-color:#555753;stop-opacity:0"
                    offset="1"/>
        </linearGradient>
        <linearGradient
                x1="23"
                y1="15"
                x2="23"
                y2="21"
                id="linearGradient3111"
                xlink:href="#linearGradient4137"
                gradientUnits="userSpaceOnUse"
                gradientTransform="translate(-33,0)"/>
        <radialGradient
                cx="0.5"
                cy="17.838446"
                r="6.1587391"
                fx="0.5"
                fy="17.838446"
                id="radialGradient4048-4"
                xlink:href="#linearGradient4042"
                gradientUnits="userSpaceOnUse"
                gradientTransform="matrix(0.8118545,0.97422537,-1.1052481,0.9210397,19.809981,-0.4170292)"/>
        <radialGradient
                cx="8.5770311"
                cy="3.8663561"
                r="6.1587391"
                fx="8.5770311"
                fy="3.8663561"
                id="radialGradient4048-2-7"
                xlink:href="#linearGradient4042"
                gradientUnits="userSpaceOnUse"
                gradientTransform="matrix(0.81185454,1.1365964,-1.1707271,0.83623306,20.063146,-1.4817979)"/>
        <radialGradient
                cx="0.5"
                cy="17.838446"
                r="6.1587391"
                fx="0.5"
                fy="17.838446"
                id="radialGradient4067-0"
                xlink:href="#linearGradient4042"
                gradientUnits="userSpaceOnUse"
                gradientTransform="matrix(0.8118545,0.97422537,-1.1052481,0.9210397,19.809981,-8.4170292)"/>
        <radialGradient
                cx="8.5770311"
                cy="3.8663561"
                r="6.1587391"
                fx="8.5770311"
                fy="3.8663561"
                id="radialGradient4094-0"
                xlink:href="#linearGradient4042"
                gradientUnits="userSpaceOnUse"
                gradientTransform="matrix(0.81185454,1.1365964,-1.1707271,0.83623306,20.063146,-1.4817979)"/>
        <radialGradient
                cx="8.5770311"
                cy="3.8663561"
                r="6.1587391"
                fx="8.5770311"
                fy="3.8663561"
                id="radialGradient4097-7"
                xlink:href="#linearGradient4042"
                gradientUnits="userSpaceOnUse"
                gradientTransform="matrix(0.81185454,1.1365964,-1.1707271,0.83623306,20.063146,-1.4817979)"/>
        <radialGradient
                cx="8.5770311"
                cy="3.8663561"
                r="6.1587391"
                fx="8.5770311"
                fy="3.8663561"
                id="radialGradient4100-9"
                xlink:href="#linearGradient4042"
                gradientUnits="userSpaceOnUse"
                gradientTransform="matrix(0.81185454,1.1365964,-1.1707271,0.83623306,20.063146,-1.4817979)"/>
        <radialGradient
                cx="8.5770311"
                cy="3.8663561"
                r="6.1587391"
                fx="8.5770311"
                fy="3.8663561"
                id="radialGradient4103-5"
                xlink:href="#linearGradient4042"
                gradientUnits="userSpaceOnUse"
                gradientTransform="matrix(0.81185454,1.1365964,-1.1707271,0.83623306,20.063146,-1.4817979)"/>
        <radialGradient
                cx="0.5"
                cy="17.838446"
                r="6.1587391"
                fx="0.5"
                fy="17.838446"
                id="radialGradient4106-7"
                xlink:href="#linearGradient4042"
                gradientUnits="userSpaceOnUse"
                gradientTransform="matrix(0.8118545,0.97422537,-1.1052481,0.9210397,19.809981,-0.4170292)"/>
        <radialGradient
                cx="0.5"
                cy="17.838446"
                r="6.1587391"
                fx="0.5"
                fy="17.838446"
                id="radialGradient4109-3"
                xlink:href="#linearGradient4042"
                gradientUnits="userSpaceOnUse"
                gradientTransform="matrix(0.8118545,0.97422537,-1.1052481,0.9210397,19.809981,-0.4170292)"/>
        <radialGradient
                cx="0.5"
                cy="17.838446"
                r="6.1587391"
                fx="0.5"
                fy="17.838446"
                id="radialGradient4112-7"
                xlink:href="#linearGradient4042"
                gradientUnits="userSpaceOnUse"
                gradientTransform="matrix(0.8118545,0.97422537,-1.1052481,0.9210397,19.809981,-0.4170292)"/>
        <radialGradient
                cx="0.5"
                cy="17.838446"
                r="6.1587391"
                fx="0.5"
                fy="17.838446"
                id="radialGradient4115-6"
                xlink:href="#linearGradient4042"
                gradientUnits="userSpaceOnUse"
                gradientTransform="matrix(0.8118545,0.97422537,-1.1052481,0.9210397,19.809981,-0.4170292)"/>
        <radialGradient
                cx="0.5"
                cy="17.838446"
                r="6.1587391"
                fx="0.5"
                fy="17.838446"
                id="radialGradient4118-3"
                xlink:href="#linearGradient4042"
                gradientUnits="userSpaceOnUse"
                gradientTransform="matrix(0.8118545,0.97422537,-1.1052481,0.9210397,19.809981,-0.4170292)"/>
        <linearGradient
                x1="10.5"
                y1="10.5"
                x2="13.5"
                y2="18.5"
                id="linearGradient4402"
                xlink:href="#linearGradient3657"
                gradientUnits="userSpaceOnUse"/>
        <linearGradient
                x1="10.5"
                y1="10.5"
                x2="13.5"
                y2="18.5"
                id="linearGradient4404"
                xlink:href="#linearGradient3657"
                gradientUnits="userSpaceOnUse"
                gradientTransform="translate(0,-3)"/>
        <linearGradient
                x1="10"
                y1="9"
                x2="4"
                y2="5"
                id="linearGradient4419"
                xlink:href="#linearGradient4691-5"
                gradientUnits="userSpaceOnUse"
                gradientTransform="matrix(1.4943452,0,0,1.5138186,-1.3825451,-1.7707278)"/>
        <linearGradient
                x1="23"
                y1="15"
                x2="23"
                y2="21"
                id="linearGradient4421"
                xlink:href="#linearGradient4137"
                gradientUnits="userSpaceOnUse"
                gradientTransform="translate(-33,0)"/>
        <linearGradient
                x1="23"
                y1="15"
                x2="23"
                y2="21"
                id="linearGradient4423"
                xlink:href="#linearGradient4137"
                gradientUnits="userSpaceOnUse"
                gradientTransform="translate(-33,0)"/>
        <filter
                x="-0.25"
                y="-0.25"
                width="1.5"
                height="1.5"
                color-interpolation-filters="sRGB"
                id="filter4128">
            <feGaussianBlur
                    result="blur"
                    stdDeviation="2.000000"
                    in="SourceAlpha"
                    id="feGaussianBlur4130"/>
            <feColorMatrix
                    values="1 0 0 0 0 0 1 0 0 0 0 0 1 0 0 0 0 0 0.351000 0 "
                    type="matrix"
                    result="bluralpha"
                    id="feColorMatrix4132"/>
            <feOffset
                    result="offsetBlur"
                    dy="7.500000"
                    dx="7.500000"
                    in="bluralpha"
                    id="feOffset4134"/>
            <feMerge
                    id="feMerge4136">
                <feMergeNode
                        in="offsetBlur"
                        id="feMergeNode4138"/>
                <feMergeNode
                        in="SourceGraphic"
                        id="feMergeNode4140"/>
            </feMerge>
        </filter>
        <radialGradient
                cx="0.5"
                cy="17.838446"
                r="6.1587391"
                fx="0.5"
                fy="17.838446"
                id="radialGradient4048-3"
                xlink:href="#linearGradient4042"
                gradientUnits="userSpaceOnUse"
                gradientTransform="matrix(0.8118545,0.97422537,-1.1052481,0.9210397,19.809981,-0.4170292)"/>
        <radialGradient
                cx="8.5770311"
                cy="3.8663561"
                r="6.1587391"
                fx="8.5770311"
                fy="3.8663561"
                id="radialGradient4048-2-0"
                xlink:href="#linearGradient4042"
                gradientUnits="userSpaceOnUse"
                gradientTransform="matrix(0.81185454,1.1365964,-1.1707271,0.83623306,20.063146,-1.4817979)"/>
        <radialGradient
                cx="0.5"
                cy="17.838446"
                r="6.1587391"
                fx="0.5"
                fy="17.838446"
                id="radialGradient4067-4"
                xlink:href="#linearGradient4042"
                gradientUnits="userSpaceOnUse"
                gradientTransform="matrix(0.8118545,0.97422537,-1.1052481,0.9210397,19.809981,-8.4170292)"/>
        <radialGradient
                cx="8.5770311"
                cy="3.8663561"
                r="6.1587391"
                fx="8.5770311"
                fy="3.8663561"
                id="radialGradient4094-8"
                xlink:href="#linearGradient4042"
                gradientUnits="userSpaceOnUse"
                gradientTransform="matrix(0.81185454,1.1365964,-1.1707271,0.83623306,20.063146,-1.4817979)"/>
        <radialGradient
                cx="8.5770311"
                cy="3.8663561"
                r="6.1587391"
                fx="8.5770311"
                fy="3.8663561"
                id="radialGradient4097-3"
                xlink:href="#linearGradient4042"
                gradientUnits="userSpaceOnUse"
                gradientTransform="matrix(0.81185454,1.1365964,-1.1707271,0.83623306,20.063146,-1.4817979)"/>
        <radialGradient
                cx="8.5770311"
                cy="3.8663561"
                r="6.1587391"
                fx="8.5770311"
                fy="3.8663561"
                id="radialGradient4100-00"
                xlink:href="#linearGradient4042"
                gradientUnits="userSpaceOnUse"
                gradientTransform="matrix(0.81185454,1.1365964,-1.1707271,0.83623306,20.063146,-1.4817979)"/>
        <radialGradient
                cx="8.5770311"
                cy="3.8663561"
                r="6.1587391"
                fx="8.5770311"
                fy="3.8663561"
                id="radialGradient4103-4"
                xlink:href="#linearGradient4042"
                gradientUnits="userSpaceOnUse"
                gradientTransform="matrix(0.81185454,1.1365964,-1.1707271,0.83623306,20.063146,-1.4817979)"/>
        <radialGradient
                cx="0.5"
                cy="17.838446"
                r="6.1587391"
                fx="0.5"
                fy="17.838446"
                id="radialGradient4106-22"
                xlink:href="#linearGradient4042"
                gradientUnits="userSpaceOnUse"
                gradientTransform="matrix(0.8118545,0.97422537,-1.1052481,0.9210397,19.809981,-0.4170292)"/>
        <radialGradient
                cx="0.5"
                cy="17.838446"
                r="6.1587391"
                fx="0.5"
                fy="17.838446"
                id="radialGradient4109-4"
                xlink:href="#linearGradient4042"
                gradientUnits="userSpaceOnUse"
                gradientTransform="matrix(0.8118545,0.97422537,-1.1052481,0.9210397,19.809981,-0.4170292)"/>
        <radialGradient
                cx="0.5"
                cy="17.838446"
                r="6.1587391"
                fx="0.5"
                fy="17.838446"
                id="radialGradient4112-4"
                xlink:href="#linearGradient4042"
                gradientUnits="userSpaceOnUse"
                gradientTransform="matrix(0.8118545,0.97422537,-1.1052481,0.9210397,19.809981,-0.4170292)"/>
        <radialGradient
                cx="0.5"
                cy="17.838446"
                r="6.1587391"
                fx="0.5"
                fy="17.838446"
                id="radialGradient4115-78"
                xlink:href="#linearGradient4042"
                gradientUnits="userSpaceOnUse"
                gradientTransform="matrix(0.8118545,0.97422537,-1.1052481,0.9210397,19.809981,-0.4170292)"/>
        <radialGradient
                cx="0.5"
                cy="17.838446"
                r="6.1587391"
                fx="0.5"
                fy="17.838446"
                id="radialGradient4118-6"
                xlink:href="#linearGradient4042"
                gradientUnits="userSpaceOnUse"
                gradientTransform="matrix(0.8118545,0.97422537,-1.1052481,0.9210397,19.809981,-0.4170292)"/>
        <linearGradient
                x1="10.5"
                y1="10.5"
                x2="13.5"
                y2="18.5"
                id="linearGradient4628"
                xlink:href="#linearGradient3657"
                gradientUnits="userSpaceOnUse"/>
        <linearGradient
                x1="10.5"
                y1="10.5"
                x2="13.5"
                y2="18.5"
                id="linearGradient4630"
                xlink:href="#linearGradient3657"
                gradientUnits="userSpaceOnUse"
                gradientTransform="translate(0,-3)"/>
        <radialGradient
                cx="0.5"
                cy="17.838446"
                r="6.1587391"
                fx="0.5"
                fy="17.838446"
                id="radialGradient4048-1"
                xlink:href="#linearGradient4042"
                gradientUnits="userSpaceOnUse"
                gradientTransform="matrix(0.8118545,0.97422537,-1.1052481,0.9210397,19.809981,-0.4170292)"/>
        <radialGradient
                cx="8.5770311"
                cy="3.8663561"
                r="6.1587391"
                fx="8.5770311"
                fy="3.8663561"
                id="radialGradient4048-2-9"
                xlink:href="#linearGradient4042"
                gradientUnits="userSpaceOnUse"
                gradientTransform="matrix(0.81185454,1.1365964,-1.1707271,0.83623306,20.063146,-1.4817979)"/>
        <radialGradient
                cx="0.5"
                cy="17.838446"
                r="6.1587391"
                fx="0.5"
                fy="17.838446"
                id="radialGradient4067-9"
                xlink:href="#linearGradient4042"
                gradientUnits="userSpaceOnUse"
                gradientTransform="matrix(0.8118545,0.97422537,-1.1052481,0.9210397,19.809981,-8.4170292)"/>
        <radialGradient
                cx="8.5770311"
                cy="3.8663561"
                r="6.1587391"
                fx="8.5770311"
                fy="3.8663561"
                id="radialGradient4094-6"
                xlink:href="#linearGradient4042"
                gradientUnits="userSpaceOnUse"
                gradientTransform="matrix(0.81185454,1.1365964,-1.1707271,0.83623306,20.063146,-1.4817979)"/>
        <radialGradient
                cx="8.5770311"
                cy="3.8663561"
                r="6.1587391"
                fx="8.5770311"
                fy="3.8663561"
                id="radialGradient4097-76"
                xlink:href="#linearGradient4042"
                gradientUnits="userSpaceOnUse"
                gradientTransform="matrix(0.81185454,1.1365964,-1.1707271,0.83623306,20.063146,-1.4817979)"/>
        <radialGradient
                cx="8.5770311"
                cy="3.8663561"
                r="6.1587391"
                fx="8.5770311"
                fy="3.8663561"
                id="radialGradient4100-0"
                xlink:href="#linearGradient4042"
                gradientUnits="userSpaceOnUse"
                gradientTransform="matrix(0.81185454,1.1365964,-1.1707271,0.83623306,20.063146,-1.4817979)"/>
        <radialGradient
                cx="8.5770311"
                cy="3.8663561"
                r="6.1587391"
                fx="8.5770311"
                fy="3.8663561"
                id="radialGradient4103-58"
                xlink:href="#linearGradient4042"
                gradientUnits="userSpaceOnUse"
                gradientTransform="matrix(0.81185454,1.1365964,-1.1707271,0.83623306,20.063146,-1.4817979)"/>
        <radialGradient
                cx="0.5"
                cy="17.838446"
                r="6.1587391"
                fx="0.5"
                fy="17.838446"
                id="radialGradient4106-2"
                xlink:href="#linearGradient4042"
                gradientUnits="userSpaceOnUse"
                gradientTransform="matrix(0.8118545,0.97422537,-1.1052481,0.9210397,19.809981,-0.4170292)"/>
        <radialGradient
                cx="0.5"
                cy="17.838446"
                r="6.1587391"
                fx="0.5"
                fy="17.838446"
                id="radialGradient4109-8"
                xlink:href="#linearGradient4042"
                gradientUnits="userSpaceOnUse"
                gradientTransform="matrix(0.8118545,0.97422537,-1.1052481,0.9210397,19.809981,-0.4170292)"/>
        <radialGradient
                cx="0.5"
                cy="17.838446"
                r="6.1587391"
                fx="0.5"
                fy="17.838446"
                id="radialGradient4112-78"
                xlink:href="#linearGradient4042"
                gradientUnits="userSpaceOnUse"
                gradientTransform="matrix(0.8118545,0.97422537,-1.1052481,0.9210397,19.809981,-0.4170292)"/>
        <radialGradient
                cx="0.5"
                cy="17.838446"
                r="6.1587391"
                fx="0.5"
                fy="17.838446"
                id="radialGradient4115-7"
                xlink:href="#linearGradient4042"
                gradientUnits="userSpaceOnUse"
                gradientTransform="matrix(0.8118545,0.97422537,-1.1052481,0.9210397,19.809981,-0.4170292)"/>
        <radialGradient
                cx="0.5"
                cy="17.838446"
                r="6.1587391"
                fx="0.5"
                fy="17.838446"
                id="radialGradient4118-5"
                xlink:href="#linearGradient4042"
                gradientUnits="userSpaceOnUse"
                gradientTransform="matrix(0.8118545,0.97422537,-1.1052481,0.9210397,19.809981,-0.4170292)"/>
        <linearGradient
                x1="10.5"
                y1="10.5"
                x2="13.5"
                y2="18.5"
                id="linearGradient4502"
                xlink:href="#linearGradient3657"
                gradientUnits="userSpaceOnUse"/>
        <linearGradient
                x1="10.5"
                y1="10.5"
                x2="13.5"
                y2="18.5"
                id="linearGradient4504"
                xlink:href="#linearGradient3657"
                gradientUnits="userSpaceOnUse"
                gradientTransform="translate(0,-3)"/>
        <linearGradient
                x1="10"
                y1="9"
                x2="4"
                y2="5"
                id="linearGradient4682"
                xlink:href="#linearGradient4691-5"
                gradientUnits="userSpaceOnUse"
                gradientTransform="matrix(1.4943452,0,0,1.5138186,-1.3825451,-1.7707278)"/>
        <radialGradient
                cx="0.5"
                cy="17.838446"
                r="6.1587391"
                fx="0.5"
                fy="17.838446"
                id="radialGradient4048-4-0"
                xlink:href="#linearGradient4042"
                gradientUnits="userSpaceOnUse"
                gradientTransform="matrix(0.8118545,0.97422537,-1.1052481,0.9210397,19.809981,-0.4170292)"/>
        <radialGradient
                cx="8.5770311"
                cy="3.8663561"
                r="6.1587391"
                fx="8.5770311"
                fy="3.8663561"
                id="radialGradient4048-2-7-5"
                xlink:href="#linearGradient4042"
                gradientUnits="userSpaceOnUse"
                gradientTransform="matrix(0.81185454,1.1365964,-1.1707271,0.83623306,20.063146,-1.4817979)"/>
        <radialGradient
                cx="0.5"
                cy="17.838446"
                r="6.1587391"
                fx="0.5"
                fy="17.838446"
                id="radialGradient4067-0-4"
                xlink:href="#linearGradient4042"
                gradientUnits="userSpaceOnUse"
                gradientTransform="matrix(0.8118545,0.97422537,-1.1052481,0.9210397,19.809981,-8.4170292)"/>
        <radialGradient
                cx="8.5770311"
                cy="3.8663561"
                r="6.1587391"
                fx="8.5770311"
                fy="3.8663561"
                id="radialGradient4094-0-6"
                xlink:href="#linearGradient4042"
                gradientUnits="userSpaceOnUse"
                gradientTransform="matrix(0.81185454,1.1365964,-1.1707271,0.83623306,20.063146,-1.4817979)"/>
        <radialGradient
                cx="8.5770311"
                cy="3.8663561"
                r="6.1587391"
                fx="8.5770311"
                fy="3.8663561"
                id="radialGradient4097-7-8"
                xlink:href="#linearGradient4042"
                gradientUnits="userSpaceOnUse"
                gradientTransform="matrix(0.81185454,1.1365964,-1.1707271,0.83623306,20.063146,-1.4817979)"/>
        <radialGradient
                cx="8.5770311"
                cy="3.8663561"
                r="6.1587391"
                fx="8.5770311"
                fy="3.8663561"
                id="radialGradient4100-9-5"
                xlink:href="#linearGradient4042"
                gradientUnits="userSpaceOnUse"
                gradientTransform="matrix(0.81185454,1.1365964,-1.1707271,0.83623306,20.063146,-1.4817979)"/>
        <radialGradient
                cx="8.5770311"
                cy="3.8663561"
                r="6.1587391"
                fx="8.5770311"
                fy="3.8663561"
                id="radialGradient4103-5-1"
                xlink:href="#linearGradient4042"
                gradientUnits="userSpaceOnUse"
                gradientTransform="matrix(0.81185454,1.1365964,-1.1707271,0.83623306,20.063146,-1.4817979)"/>
        <radialGradient
                cx="0.5"
                cy="17.838446"
                r="6.1587391"
                fx="0.5"
                fy="17.838446"
                id="radialGradient4106-7-0"
                xlink:href="#linearGradient4042"
                gradientUnits="userSpaceOnUse"
                gradientTransform="matrix(0.8118545,0.97422537,-1.1052481,0.9210397,19.809981,-0.4170292)"/>
        <radialGradient
                cx="0.5"
                cy="17.838446"
                r="6.1587391"
                fx="0.5"
                fy="17.838446"
                id="radialGradient4109-3-2"
                xlink:href="#linearGradient4042"
                gradientUnits="userSpaceOnUse"
                gradientTransform="matrix(0.8118545,0.97422537,-1.1052481,0.9210397,19.809981,-0.4170292)"/>
        <radialGradient
                cx="0.5"
                cy="17.838446"
                r="6.1587391"
                fx="0.5"
                fy="17.838446"
                id="radialGradient4112-7-1"
                xlink:href="#linearGradient4042"
                gradientUnits="userSpaceOnUse"
                gradientTransform="matrix(0.8118545,0.97422537,-1.1052481,0.9210397,19.809981,-0.4170292)"/>
        <radialGradient
                cx="0.5"
                cy="17.838446"
                r="6.1587391"
                fx="0.5"
                fy="17.838446"
                id="radialGradient4115-6-3"
                xlink:href="#linearGradient4042"
                gradientUnits="userSpaceOnUse"
                gradientTransform="matrix(0.8118545,0.97422537,-1.1052481,0.9210397,19.809981,-0.4170292)"/>
        <radialGradient
                cx="0.5"
                cy="17.838446"
                r="6.1587391"
                fx="0.5"
                fy="17.838446"
                id="radialGradient4118-3-3"
                xlink:href="#linearGradient4042"
                gradientUnits="userSpaceOnUse"
                gradientTransform="matrix(0.8118545,0.97422537,-1.1052481,0.9210397,19.809981,-0.4170292)"/>
        <linearGradient
                x1="10.5"
                y1="10.5"
                x2="13.5"
                y2="18.5"
                id="linearGradient4718"
                xlink:href="#linearGradient3657"
                gradientUnits="userSpaceOnUse"/>
        <linearGradient
                x1="10.5"
                y1="10.5"
                x2="13.5"
                y2="18.5"
                id="linearGradient4720"
                xlink:href="#linearGradient3657"
                gradientUnits="userSpaceOnUse"
                gradientTransform="translate(0,-3)"/>
        <linearGradient
                x1="23"
                y1="15"
                x2="23"
                y2="21"
                id="linearGradient3226"
                xlink:href="#linearGradient4137-3"
                gradientUnits="userSpaceOnUse"
                gradientTransform="translate(-33,0)"/>
        <linearGradient
                id="linearGradient4137-3">
            <stop
                    id="stop4139-5"
                    style="stop-color:#555753;stop-opacity:1"
                    offset="0"/>
            <stop
                    id="stop4141-1"
                    style="stop-color:#555753;stop-opacity:0"
                    offset="1"/>
        </linearGradient>
        <filter
                y="-0.25"
                x="-0.25"
                height="1.5"
                width="1.5"
                inkscape:label="Drop shadow"
                id="filter4128-3">
            <feGaussianBlur
                    result="blur"
                    stdDeviation="2.000000"
                    in="SourceAlpha"
                    id="feGaussianBlur4130-6"/>
            <feColorMatrix
                    values="1 0 0 0 0 0 1 0 0 0 0 0 1 0 0 0 0 0 0.351000 0 "
                    type="matrix"
                    result="bluralpha"
                    id="feColorMatrix4132-7"/>
            <feOffset
                    result="offsetBlur"
                    dy="7.500000"
                    dx="7.500000"
                    in="bluralpha"
                    id="feOffset4134-5"/>
            <feMerge
                    id="feMerge4136-3">
                <feMergeNode
                        in="offsetBlur"
                        id="feMergeNode4138-5"/>
                <feMergeNode
                        in="SourceGraphic"
                        id="feMergeNode4140-6"/>
            </feMerge>
        </filter>
    </defs>
    <metadata
            id="metadata5697">
        <rdf:RDF>
            <cc:Work
                    rdf:about="">
                <dc:format>image/svg+xml</dc:format>
                <dc:type
                        rdf:resource="http://purl.org/dc/dcmitype/StillImage"/>
                <dc:title>ring fill</dc:title>
                <dc:date>2014-02-04</dc:date>
                <dc:creator>
                    <cc:Agent>
                        <dc:title>Robert Szczepanek</dc:title>
                    </cc:Agent>
                </dc:creator>
                <dc:rights>
                    <cc:Agent>
                        <dc:title/>
                    </cc:Agent>
                </dc:rights>
                <dc:subject>
                    <rdf:Bag>
                        <rdf:li>ring fill</rdf:li>
                    </rdf:Bag>
                </dc:subject>
                <dc:coverage>GIS icons 0.2</dc:coverage>
                <cc:license
                        rdf:resource="http://creativecommons.org/licenses/by-sa/3.0/"/>
            </cc:Work>
            <cc:License
                    rdf:about="http://creativecommons.org/licenses/by-sa/3.0/">
                <cc:permits
                        rdf:resource="http://creativecommons.org/ns#Reproduction"/>
                <cc:permits
                        rdf:resource="http://creativecommons.org/ns#Distribution"/>
                <cc:requires
                        rdf:resource="http://creativecommons.org/ns#Notice"/>
                <cc:requires
                        rdf:resource="http://creativecommons.org/ns#Attribution"/>
                <cc:permits
                        rdf:resource="http://creativecommons.org/ns#DerivativeWorks"/>
                <cc:requires
                        rdf:resource="http://creativecommons.org/ns#ShareAlike"/>
            </cc:License>
        </rdf:RDF>
    </metadata>
    <path
            style="fill:#ff0000"
            d="m 11.184919,23.673917 c -0.04732,-0.132093 -0.108537,-0.812636 -0.136039,-1.512312 l -0.05,-1.272138 -0.946069,-0.212442 C 6.8933936,19.967569 4.1815191,17.255639 3.4726188,14.096699 l -0.2123083,-0.946068 -1.4558997,-0.09182 -1.4558998,-0.09182 0,-0.826322 0,-0.826322 1.4558998,-0.09182 1.4558997,-0.09182 0.2123083,-0.946069 C 4.1815319,7.0256668 6.8938131,4.3133865 10.05281,3.6044733 l 0.946068,-0.2123082 0.09182,-1.4559004 0.09182,-1.45589957 0.826322,0 0.826322,0 0.09182,1.45589957 0.09182,1.4559004 0.946068,0.2123082 c 3.158995,0.7089132 5.871278,3.4211935 6.580192,6.5801907 l 0.212308,0.946069 1.4559,0.09182 1.455898,0.09182 0,0.826321 0,0.826323 -1.448853,0.09182 -1.448854,0.09182 -0.254411,1.009948 c -0.816667,3.241971 -3.246329,5.671634 -6.4883,6.488299 l -1.009948,0.254412 -0.09182,1.448854 -0.09182,1.448854 -0.782095,0.05655 c -0.520239,0.03761 -0.810901,-0.02387 -0.868135,-0.183627 z m 3.341892,-5.135403 c 0.791168,-0.295079 1.372043,-0.705666 2.27311,-1.606736 1.529359,-1.529357 2.003107,-2.663647 2.003107,-4.796014 0,-3.9020808 -2.905899,-6.8182765 -6.794201,-6.8182765 -3.8670015,0 -6.8231935,2.9561924 -6.8231935,6.8231935 0,2.880262 1.7079142,5.388166 4.3806015,6.432486 1.277335,0.499103 3.572455,0.483069 4.960576,-0.03465 z M 10.447998,15.648718 C 7.3606592,14.219327 7.4414518,9.8806667 10.57982,8.5696956 c 2.453576,-1.0249177 5.27711,0.8857488 5.27711,3.5709854 0,2.749577 -2.935287,4.653297 -5.408932,3.508037 z"
            id="path3506"
            inkscape:connector-curvature="0"/>
    <g
            style="fill-rule:nonzero;stroke:#415a75;stroke-miterlimit:4;stroke-opacity:1"
            id="orginal-6"
            transform="matrix(0.04360941,0,0,0.04360941,-46.376673,-10.776439)"/>
    <path
            inkscape:connector-curvature="0"
            style="fill-rule:nonzero;stroke:#415a75;stroke-width:0.13082823;stroke-linecap:round;stroke-linejoin:round;stroke-miterlimit:4;stroke-opacity:1"
            id="path2484"
            d=""/>
    <g
            transform="matrix(0.02683712,0,0,0.02683712,-22.02671,29.727465)"
            id="orginal"
            style="display:inline;fill:none;stroke:#415a75;stroke-miterlimit:4;stroke-opacity:1;filter:url(#filter4128-3)"/>
    <g
            transform="matrix(0.02192914,0,0,0.02192914,-21.313167,32.443099)"
            style="display:inline;fill-rule:nonzero;stroke:#415a75;stroke-miterlimit:4;stroke-opacity:1"
            id="orginal-6-2"/>
    <path
            d=""
            style="display:inline;fill-rule:nonzero;stroke:#415a75;stroke-width:0.06578744;stroke-linecap:round;stroke-linejoin:round;stroke-miterlimit:4;stroke-opacity:1"
            id="path2484-9"
            inkscape:connector-curvature="0"/>
    <g
            style="stroke-linejoin:round;stroke-dashoffset:0.5;enable-background:new"
            transform="matrix(-0.8660254,0.4999999,0.4999999,0.8660254,20.407843,-3.4459045)"
            id="g4">
        <path
                style="overflow:visible;fill:#505050;stroke:#505050;stroke-width:0.75;stroke-linecap:round"
                inkscape:connector-curvature="0"
                d="m 8.0961023,18.028419 5.9999997,0 -3.12491,6.990956 -2.8750897,-6.990956 z"
                overflow="visible"
                id="path6"/>
        <path
                style="overflow:visible;fill:#fce94f;stroke:#8b7617;stroke-width:0.74999994;stroke-linecap:round"
                inkscape:connector-curvature="0"
                d="m 8.0961004,1.0284199 6.0000006,-1e-6 10e-7,17.0000001 -5.9999997,0 -1.9e-6,-16.9999991"
                overflow="visible"
                id="path8"/>
        <path
                style="overflow:visible;opacity:0.5;fill:none;stroke:#fcffff;stroke-width:1.99999988"
                inkscape:connector-curvature="0"
                d="m 10.596101,2.0284194 10e-7,14.9999996"
                overflow="visible"
                id="path10"/>
        <path
                style="overflow:visible;opacity:0.25;fill-opacity:0.58823529;stroke:#000000;stroke-width:1.99999988"
                inkscape:connector-curvature="0"
                d="m 12.596101,2.0284192 2e-6,14.9999998"
                overflow="visible"
                id="path12"/>
        <path
                inkscape:connector-curvature="0"
                d="m 12.096101,2.0284193 10e-7,15.9999997"
                style="overflow:visible;opacity:0.5;fill:#fce94f;stroke:#8b7617;stroke-width:0.74999994;stroke-linecap:round"
                id="path14"/>
        <path
                style="overflow:visible;fill:#969696;stroke:#969696;stroke-width:0.49999997;stroke-linecap:square"
                inkscape:connector-curvature="0"
                d="m 11.463292,23.228968 1.996957,-4.943779 -1.996957,-10e-7 0,4.94378 z"
                overflow="visible"
                id="path16"/>
        <path
                inkscape:connector-curvature="0"
                d="m 9.5961007,2.0284198 1.5e-6,15.9999982"
                style="overflow:visible;opacity:0.5;fill:#fce94f;stroke:#8b7617;stroke-width:0.74999994;stroke-linecap:round"
                id="path18"/>
        <path
                style="overflow:visible;fill:#e6e6e6;stroke:#969696;stroke-width:0.5;stroke-linecap:round"
                inkscape:connector-curvature="0"
                d="m 7.8653316,-0.08727704 6.4615374,0 0,2.17913134 -6.4615374,0 z"
                overflow="visible"
                id="path20"/>
        <path
                style="overflow:visible;fill:#e6e6e6;stroke:#e6e6e6;stroke-width:0.49999997;stroke-linecap:square"
                inkscape:connector-curvature="0"
                d="m 10.728912,23.38728 -1.9969556,-5.102091 1.9969556,0 0,5.102091 z"
                overflow="visible"
                id="path22"/>
    </g>
</svg>
