<?xml version="1.0" encoding="UTF-8" standalone="no"?>
<!-- Generator: Adobe Illustrator 22.1.0, SVG Export Plug-In . SVG Version: 6.00 Build 0)  -->

<svg
        xmlns:dc="http://purl.org/dc/elements/1.1/"
        xmlns:cc="http://creativecommons.org/ns#"
        xmlns:rdf="http://www.w3.org/1999/02/22-rdf-syntax-ns#"
        xmlns:sodipodi="http://sodipodi.sourceforge.net/DTD/sodipodi-0.dtd"
        xmlns:inkscape="http://www.inkscape.org/namespaces/inkscape"
        xmlns="http://www.w3.org/2000/svg"
        version="1.1"
        id="Layer_1"
        x="0px"
        y="0px"
        viewBox="0 0 1213 1213"
        style="enable-background:new 0 0 1213 1213;"
        xml:space="preserve"
        sodipodi:docname="mActionLoadVesselPosSystem.svg"
        inkscape:version="0.92.3 (2405546, 2018-03-11)"><metadata
   id="metadata30"><rdf:RDF><cc:Work
       rdf:about=""><dc:format>image/svg+xml</dc:format><dc:type
        rdf:resource="http://purl.org/dc/dcmitype/StillImage"/><dc:title></dc:title></cc:Work></rdf:RDF></metadata>
    <defs
            id="defs28"/>
    <sodipodi:namedview
            pagecolor="#ffffff"
            bordercolor="#666666"
            borderopacity="1"
            objecttolerance="10"
            gridtolerance="10"
            guidetolerance="10"
            inkscape:pageopacity="0"
            inkscape:pageshadow="2"
            inkscape:window-width="1853"
            inkscape:window-height="1025"
            id="namedview26"
            showgrid="false"
            inkscape:zoom="0.048639736"
            inkscape:cx="-3571.3829"
            inkscape:cy="-2312.1984"
            inkscape:window-x="67"
            inkscape:window-y="27"
            inkscape:window-maximized="1"
            inkscape:current-layer="Layer_1"/>
    <style
            type="text/css"
            id="style2">
	.st0{fill:#404040;}
	.st1{fill:#D2B48C;}
	.st2{fill:#FFFFFF;}
</style>
    <g
            id="_x23_404040ff">
	<path
            class="st0"
            d="M504.2,0h11.1c5.8,1.1,10.8,4.6,15,8.7c21.3,21.3,42.6,42.7,64,64c5.5,5.2,10,11.7,10.9,19.3   c1.9,13.9-10,28.1-24.2,27.9c-8,0.7-15.5-3.3-21-8.9c-8.2-8.2-16.5-16.4-24.6-24.7c-0.1,79.4-0.1,158.9,0,238.3   c21.1,16.7,41.7,34.2,60.5,53.5c15.7,15.7,31.3,31.4,46.7,47.3c11.4,11.6,22,24,32.9,36c25.8,28.8,51.9,57.5,77.5,86.6   c19.3,22.1,38.9,43.8,57.3,66.6c17.3,21,34.6,41.9,52,62.9c81.3,0,162.7,0.1,244,0c-8.1-7.8-16-15.9-23.9-23.8   c-5.5-5.4-9.7-12.7-9.2-20.6c-0.3-8.3,4.3-16.3,11.2-20.8c7.4-5.1,17.7-5.4,25.6-1.3c4.1,2,7.5,5.2,10.6,8.5   c21.6,21.7,43.3,43.3,65,65c6.3,6.3,9.5,15.6,7.6,24.4c-1.2,5.7-4.4,10.7-8.5,14.7c-22.2,22.1-44.3,44.3-66.5,66.5   c-5.3,5.3-12.5,9.1-20.1,8.8c-13.2,0.4-25.4-11.6-24.9-24.9c-0.4-7.6,3.4-14.8,8.7-20.1c8.2-8.4,16.7-16.6,24.9-25   c-68.2,0-136.5,0-204.7,0c27.4,36.1,55.4,71.8,80.3,109.8c10.6,15.8,21.5,31.5,31.3,47.8c1.2,5.5,0.1,11.2,0.5,16.8   c-103,102.3-206.2,204.4-309.3,306.7c-0.9,0.7-1.7,1.7-2.9,1.7c-4.3,0.2-8.6,0-12.9,0c-3.6,0.1-6.3-2.8-9.2-4.4   c-18-11.5-35.4-23.9-53.1-35.9c-15.7-10.5-30.6-22.2-45.8-33.3c-31.6-24.3-63.1-48.8-94.4-73.5c-16.1-12.9-31.7-26.4-47.5-39.6   c-19.1-16.2-38.6-31.9-57.2-48.7c-45.6-40.3-90.4-81.6-135.4-122.6c-12.3-11-23.9-22.8-35.6-34.4c-15.6-15.8-31.4-31.3-46.6-47.5   c-24.8-27.6-47.6-56.9-68.2-87.7c-18.4-27.5-34.5-56.5-47-87.2c-3.5-6.9-5.9-14.3-8.5-21.6c-16.5-46.3-26.7-95-29-144.1   c-1.8-51.7-4-103.4-5.9-155.1c0.1-7.7-0.2-15.4,0.2-23c2.9-24.7,22.1-46.3,46.1-52.5c10.6-3,21.8-1.8,32.7-1.9   c50.4,2.2,100.8,4.9,151.2,7c53.1,2.5,105.5,14.4,155.1,33.3c32.4,13,63.6,29,92.7,48.4c0.2-66.8,0-133.6,0.1-200.3   c-7.5,7.5-15,15-22.5,22.5c-4.5,4.6-9.9,8.8-16.4,10c-6,0.9-12.5,0.5-17.7-2.8c-9.2-5.1-14.5-16.4-12.3-26.8   c1.1-6.2,4.8-11.5,9.1-15.9c21.8-21.8,43.6-43.6,65.4-65.4C493.6,4.6,498.5,1.3,504.2,0 M44.6,243.6c-5.5,7.2-6.6,16.6-5.6,25.3   c1.9,47.7,3.8,95.4,5.5,143.1c2.1,56,14.7,111.4,34.9,163.5c3.9,7.9,6.9,16.2,10.7,24.2c9.1,19.6,19.6,38.5,31.2,56.7   c19.2,30.2,40.8,58.8,64,86c11.2,13.5,23.6,25.8,35.8,38.3c12,12,24.1,23.9,36.7,35.2c48.8,44.6,97.4,89.3,147.1,132.8   c16.8,14.3,33.8,28.3,50.6,42.5c15.3,12.8,30.3,25.8,46,38c17.2,13.4,34.3,27,51.6,40.3c29.6,22.9,59.2,46,90.3,66.9   c17.3,11.9,34.6,23.9,52.4,35.2c40.5-40.2,81.1-80.4,121.6-120.6c52.3-51.8,104.5-103.7,156.9-155.5   c-14.3-23.7-30.5-46.2-45.7-69.4c-22.9-32.5-47.2-64-71.4-95.6c-0.9-1.4-2.4-2.4-4.2-2.1c-59.4,0-118.7,0-178.1,0   c-2.4-0.3-2.2,2.7-2.6,4.2c-5.5,31.6-20.6,61.4-42.8,84.5c-23.4,24.9-54.9,42.1-88.5,48.4c-30.5,5.7-62.7,3-91.7-8.4   c-30-11.8-56.5-32.5-75-59c-23-32.4-33.3-73.3-29-112.7c3.4-34.2,18-67.1,41-92.6c25-28.2,60.1-47.4,97.5-53.1   c0.5-5.4-0.1-10.9,0.1-16.3c0-54.6,0-109.3,0-163.9c0-9.6,0.3-19.3-0.1-28.9c-3.6-3.4-8.2-5.8-12.2-8.8   c-18-12.1-36.8-23.1-56.2-32.8c-10.6-5.6-21.9-9.9-32.7-15.1c-51.5-20.4-106.2-33.4-161.7-36.1c-50.3-2.2-100.6-4.7-151-7   C60.2,231,50.4,235.6,44.6,243.6 M535.3,370.1c0.1,56.7-0.1,113.4,0.1,170.1c33.6,5.1,65.3,21,89.6,44.8   c25.4,24.6,42.5,57.5,47.9,92.5c47.5,0.2,95,0,142.4,0.1c-28.4-33.9-55.8-68.7-85.3-101.6C692.5,532.8,654,490.6,615.9,448   c-13.5-14.8-27.7-29-41.9-43C561.8,392.6,548.6,381.3,535.3,370.1 M535.3,591c0,28.8,0,57.7,0,86.5c29.1,0,58.1,0.1,87.2-0.1   c-2.1-7.4-4.2-14.7-7.5-21.7C600.6,623.4,570.2,598.3,535.3,591 M399.8,668.9c-0.8,2.9-1.6,5.8-2.4,8.6c28.8,0.1,57.6,0,86.5,0   c0-28.8,0.1-57.6-0.1-86.5C444.6,599.7,411.5,630.5,399.8,668.9 M397.3,728.9c0.8,3.1,1.6,6.2,2.5,9.2   c11.7,38.4,44.8,69.2,84.1,77.8c0.1-17,0-34,0-51c0.4-11.8-0.5-23.7,0.3-35.5c-3-0.9-6.1-0.5-9.2-0.6   C449.1,728.9,423.2,728.8,397.3,728.9 M535.3,816c19.7-4.1,38.1-14,52.9-27.6c17.2-15.6,28.9-36.7,34.4-59.1   c-1.5-0.2-3.1-0.3-4.6-0.4c-27.5,0-55.1,0-82.6,0C535.3,757.9,535.3,786.9,535.3,816z"
            id="path4"/>
        <path
                class="st0"
                d="M698.3,9.3c8.7-7.7,22.6-8.3,32-1.7c5.5,3.6,8.8,9.4,12,15c9.8,16.4,19.7,32.8,29.6,49.2   c10.9-18.1,21.7-36.1,32.6-54.2c3.1-5.4,7.7-10,13.5-12.5c9-4,20.2-2.4,27.6,4.2c6.2,5.3,9.6,13.6,9,21.7   c-0.2,5.5-2.6,10.7-5.4,15.3c-15.5,25.6-30.8,51.4-46.3,77c15.6,26.3,31.5,52.4,47.2,78.6c3.1,5.1,5,11,4.6,17   c-0.4,9.3-6.2,18.2-14.7,22.2c-7.4,3.7-16.5,3.5-23.7-0.4c-5.2-2.6-9.2-7.1-12.1-12.1c-10.8-17.9-21.5-35.8-32.2-53.6   c-10.9,18.1-21.7,36.2-32.7,54.3c-3.2,5.3-7.8,10-13.6,12.3c-9.3,4.1-21,2.1-28.3-5.1c-6.6-6.1-9.5-15.8-7.6-24.6   c1-5,3.7-9.4,6.3-13.8c15-24.9,29.9-49.9,44.9-74.8c-15.6-26.2-31.4-52.2-47-78.4C686.5,34.2,687.8,17.8,698.3,9.3z"
                id="path6"/>
        <path
                class="st0"
                d="M1052.3,279.2c8-2,16.8,0.1,23.1,5.5c4.9,4,7.7,9.8,11,15c7.2,12.1,14.5,24.2,21.8,36.2c2.4,3.6,4.1,7.8,7,11   c11.1-18.2,21.9-36.6,33-54.8c3.4-5.6,8.6-10.2,14.8-12.2c8.5-3,18.5-1.2,25.4,4.6c6.3,5.1,9.8,13.4,9.4,21.5   c-0.2,5.3-2.2,10.3-4.9,14.8c-16,26.7-32,53.3-48.1,80c-1.1,2-2.7,3.9-3.3,6.1c0,28-0.1,56,0,84c0.2,8.1-2.2,16.6-8.2,22.3   c-8.2,8.4-22.2,9.9-32.1,3.7c-8.2-4.9-12.9-14.4-12.8-23.8c0-26.7,0-53.4-0.1-80c-0.2-2.8,0.8-5.9-0.9-8.4   c-16-26.7-32-53.4-48.1-80c-3.8-5.9-7.3-12.4-7.2-19.6C1031.8,293.1,1040.7,281.7,1052.3,279.2z"
                id="path8"/>
</g>
    <g
            id="_x23_d2b48cff">
	<path
            class="st1"
            d="M44.6,243.6c5.8-7.9,15.6-12.6,25.4-12.1c50.3,2.3,100.6,4.8,151,7c55.4,2.7,110.1,15.7,161.7,36.1   c10.8,5.2,22.1,9.5,32.7,15.1c19.5,9.7,38.2,20.7,56.2,32.8c4,3,8.6,5.3,12.2,8.8c0.4,9.6,0.1,19.3,0.1,28.9   c0,54.6,0,109.3,0,163.9c-0.2,5.4,0.4,10.9-0.1,16.3c-37.4,5.7-72.4,24.8-97.5,53.1c-22.9,25.5-37.6,58.4-41,92.6   c-4.3,39.4,6,80.3,29,112.7c18.4,26.5,44.9,47.2,75,59c29,11.4,61.1,14,91.7,8.4c33.6-6.3,65.1-23.5,88.5-48.4   c22.2-23.1,37.3-52.9,42.8-84.5c0.4-1.5,0.1-4.6,2.6-4.2c59.4-0.1,118.7,0,178.1,0c1.8-0.4,3.2,0.6,4.2,2.1   c24.2,31.6,48.5,63.1,71.4,95.6c15.2,23.1,31.4,45.6,45.7,69.4c-52.4,51.7-104.6,103.7-156.9,155.5   c-40.5,40.2-81.1,80.3-121.6,120.6c-17.8-11.3-35-23.3-52.4-35.2c-31.1-20.9-60.6-44-90.3-66.9c-17.3-13.3-34.4-26.9-51.6-40.3   c-15.7-12.3-30.7-25.3-46-38c-16.8-14.2-33.8-28.2-50.6-42.5c-49.7-43.5-98.3-88.3-147.1-132.8c-12.6-11.3-24.7-23.2-36.7-35.2   c-12.2-12.5-24.6-24.8-35.8-38.3c-23.2-27.2-44.8-55.9-64-86c-11.6-18.2-22-37.2-31.2-56.7c-3.8-8-6.8-16.3-10.7-24.2   C59.3,523.4,46.6,468.1,44.6,412c-1.7-47.7-3.6-95.4-5.5-143.1C38,260.2,39.2,250.7,44.6,243.6z"
            id="path11"/>
        <path
                class="st1"
                d="M535.3,370.1c13.3,11.2,26.5,22.4,38.7,34.8c14.2,14.1,28.4,28.2,41.9,43c38.1,42.6,76.6,84.8,114.1,127.9   c29.5,32.9,56.9,67.7,85.3,101.6c-47.5,0-95,0.1-142.4-0.1c-5.3-35-22.5-67.9-47.9-92.5c-24.3-23.7-56-39.6-89.6-44.8   C535.2,483.6,535.4,426.9,535.3,370.1z"
                id="path13"/>
</g>
    <g
            id="_x23_ffffffff">
	<path
            class="st2"
            d="M535.3,591c34.8,7.3,65.2,32.3,79.7,64.8c3.3,6.9,5.4,14.3,7.5,21.7c-29.1,0.2-58.1,0-87.2,0.1   C535.3,648.7,535.3,619.9,535.3,591z"
            id="path16"/>
        <path
                class="st2"
                d="M399.8,668.9c11.7-38.4,44.8-69.2,84-77.8c0.1,28.8,0,57.6,0.1,86.5c-28.8,0-57.7,0-86.5,0   C398.2,674.6,399,671.8,399.8,668.9z"
                id="path18"/>
        <path
                class="st2"
                d="M397.3,728.9c25.9,0,51.8,0,77.7,0c3.1,0.1,6.2-0.4,9.2,0.6c-0.8,11.8,0.1,23.7-0.3,35.5c0,17,0,34,0,51   c-39.2-8.5-72.4-39.4-84.1-77.8C398.9,735,398.1,732,397.3,728.9z"
                id="path20"/>
        <path
                class="st2"
                d="M535.3,816c0-29-0.1-58.1,0-87.1c27.5,0,55.1,0,82.6,0c1.5,0.1,3.1,0.2,4.6,0.4c-5.5,22.5-17.3,43.5-34.4,59.1   C573.4,802,555,811.9,535.3,816z"
                id="path22"/>
</g>
    <path
            style="fill:#fcd94f;fill-opacity:1;stroke:#b29a37;stroke-width:17.30530357;stroke-linecap:butt;stroke-linejoin:round;stroke-miterlimit:4;stroke-dasharray:none;stroke-opacity:1"
            d="m 689.77844,1189.2696 c 0,-138.4424 0,-268.2322 0,-389.36932 h 155.74772 v 51.91591 H 1122.411 v 337.45341 z"
            id="path3840"
            inkscape:connector-curvature="0"
            sodipodi:nodetypes="ccccccc"/>
    <path
            style="fill:#fcd94f;fill-opacity:1;stroke:#b29a37;stroke-width:17.30530357;stroke-linecap:round;stroke-linejoin:round;stroke-miterlimit:4;stroke-dasharray:none;stroke-opacity:1"
            d="M 689.77844,1189.2696 758.99962,912.38479 H 1191.6323 L 1122.411,1189.2696 Z"
            id="path3850"
            inkscape:connector-curvature="0"
            sodipodi:nodetypes="ccccc"/></svg>